(export (version D)
  (design
    (source "C:\\Users\\Patrick.Gall\\Documents\\Local Repo\\ArduDish\\Hardware\\ArduDishPowerDistributionBoard\\ArduDishPowerDistributionBoard.sch")
    (date "10/1/2019 4:50:23 PM")
    (tool "Eeschema (5.1.2)-2")
    (sheet (number 1) (name /) (tstamps /)
      (title_block
        (title)
        (company)
        (rev)
        (date)
        (source ArduDishPowerDistributionBoard.sch)
        (comment (number 1) (value ""))
        (comment (number 2) (value ""))
        (comment (number 3) (value ""))
        (comment (number 4) (value "")))))
  (components
    (comp (ref J1)
      (value Conn_01x02_Male)
      (footprint TerminalBlock_RND:TerminalBlock_RND_205-00067_1x02_P7.50mm_Horizontal)
      (datasheet ~)
      (libsource (lib Connector) (part Conn_01x02_Male) (description "Generic connector, single row, 01x02, script generated (kicad-library-utils/schlib/autogen/connector/)"))
      (sheetpath (names /) (tstamps /))
      (tstamp 5D91DD99))
    (comp (ref F2)
      (value 350mA)
      (footprint Fuse:Fuseholder_TR5_Littelfuse_No560_No460)
      (datasheet ~)
      (libsource (lib Device) (part Fuse) (description Fuse))
      (sheetpath (names /) (tstamps /))
      (tstamp 5D91DDB1))
    (comp (ref F1)
      (value 500mA)
      (footprint Fuse:Fuseholder_TR5_Littelfuse_No560_No460)
      (datasheet ~)
      (libsource (lib Device) (part Fuse) (description Fuse))
      (sheetpath (names /) (tstamps /))
      (tstamp 5D91DDB7))
    (comp (ref PS1)
      (value IRM-03-5)
      (footprint Converter_ACDC:Converter_ACDC_MeanWell_IRM-03-xx_THT)
      (datasheet https://www.meanwell.com/Upload/PDF/IRM-03/IRM-03-SPEC.PDF)
      (libsource (lib Converter_ACDC) (part IRM-03-5) (description "5V, 3W, AC-DC module power supply, MeanWell"))
      (sheetpath (names /) (tstamps /))
      (tstamp 5D91DDBD))
    (comp (ref J2)
      (value Conn_01x02_Male)
      (footprint Connector_JST:JST_PH_S2B-PH-K_1x02_P2.00mm_Horizontal)
      (datasheet ~)
      (libsource (lib Connector) (part Conn_01x02_Male) (description "Generic connector, single row, 01x02, script generated (kicad-library-utils/schlib/autogen/connector/)"))
      (sheetpath (names /) (tstamps /))
      (tstamp 5D91FA80))
    (comp (ref C1)
      (value 470uF)
      (footprint Capacitor_SMD:CP_Elec_10x10)
      (datasheet ~)
      (libsource (lib Device) (part CP1) (description "Polarized capacitor, US symbol"))
      (sheetpath (names /) (tstamps /))
      (tstamp 5D9251CC)))
  (libparts
    (libpart (lib Connector) (part Conn_01x02_Male)
      (description "Generic connector, single row, 01x02, script generated (kicad-library-utils/schlib/autogen/connector/)")
      (docs ~)
      (footprints
        (fp Connector*:*_1x??_*))
      (fields
        (field (name Reference) J)
        (field (name Value) Conn_01x02_Male))
      (pins
        (pin (num 1) (name Pin_1) (type passive))
        (pin (num 2) (name Pin_2) (type passive))))
    (libpart (lib Converter_ACDC) (part IRM-03-3.3)
      (aliases
        (alias IRM-03-5)
        (alias IRM-03-12)
        (alias IRM-03-15)
        (alias IRM-03-24))
      (description "3.3V, 3W, AC-DC module power supply, MeanWell")
      (docs https://www.meanwell.com/Upload/PDF/IRM-03/IRM-03-SPEC.PDF)
      (footprints
        (fp Converter*ACDC*MeanWell*IRM*03*THT*))
      (fields
        (field (name Reference) PS)
        (field (name Value) IRM-03-3.3)
        (field (name Footprint) Converter_ACDC:Converter_ACDC_MeanWell_IRM-03-xx_THT))
      (pins
        (pin (num 1) (name AC/L) (type power_in))
        (pin (num 3) (name AC/N) (type power_in))
        (pin (num 14) (name -Vo) (type power_out))
        (pin (num 16) (name +Vo) (type power_out))
        (pin (num NC) (name 5) (type NotConnected))))
    (libpart (lib Device) (part CP1)
      (description "Polarized capacitor, US symbol")
      (docs ~)
      (footprints
        (fp CP_*))
      (fields
        (field (name Reference) C)
        (field (name Value) CP1))
      (pins
        (pin (num 1) (name ~) (type passive))
        (pin (num 2) (name ~) (type passive))))
    (libpart (lib Device) (part Fuse)
      (description Fuse)
      (docs ~)
      (footprints
        (fp *Fuse*))
      (fields
        (field (name Reference) F)
        (field (name Value) Fuse))
      (pins
        (pin (num 1) (name ~) (type passive))
        (pin (num 2) (name ~) (type passive)))))
  (libraries
    (library (logical Connector)
      (uri "C:\\Program Files\\KiCad\\share\\kicad\\library/Connector.lib"))
    (library (logical Converter_ACDC)
      (uri "C:\\Program Files\\KiCad\\share\\kicad\\library/Converter_ACDC.lib"))
    (library (logical Device)
      (uri "C:\\Program Files\\KiCad\\share\\kicad\\library/Device.lib")))
  (nets
    (net (code 1) (name GND)
      (node (ref C1) (pin 2))
      (node (ref J2) (pin 1))
      (node (ref PS1) (pin 14)))
    (net (code 2) (name "Net-(F1-Pad1)")
      (node (ref PS1) (pin 1))
      (node (ref F1) (pin 1)))
    (net (code 3) (name "Net-(F2-Pad2)")
      (node (ref PS1) (pin 16))
      (node (ref F2) (pin 2)))
    (net (code 4) (name "Net-(J1-Pad2)")
      (node (ref PS1) (pin 3))
      (node (ref J1) (pin 2)))
    (net (code 5) (name "Net-(PS1-PadNC)")
      (node (ref PS1) (pin NC)))
    (net (code 6) (name +9V)
      (node (ref J2) (pin 2))
      (node (ref C1) (pin 1))
      (node (ref F2) (pin 1)))
    (net (code 7) (name "Net-(F1-Pad2)")
      (node (ref F1) (pin 2))
      (node (ref J1) (pin 1)))))