G04 #@! TF.GenerationSoftware,KiCad,Pcbnew,5.1.4-e60b266~84~ubuntu18.04.1*
G04 #@! TF.CreationDate,2019-11-17T14:13:18-07:00*
G04 #@! TF.ProjectId,ArduDishMegaShield,41726475-4469-4736-984d-656761536869,rev?*
G04 #@! TF.SameCoordinates,Original*
G04 #@! TF.FileFunction,Paste,Bot*
G04 #@! TF.FilePolarity,Positive*
%FSLAX46Y46*%
G04 Gerber Fmt 4.6, Leading zero omitted, Abs format (unit mm)*
G04 Created by KiCad (PCBNEW 5.1.4-e60b266~84~ubuntu18.04.1) date 2019-11-17 14:13:18*
%MOMM*%
%LPD*%
G04 APERTURE LIST*
%ADD10R,0.800000X0.900000*%
%ADD11C,0.100000*%
%ADD12C,1.425000*%
%ADD13C,0.950000*%
%ADD14R,5.100000X5.100000*%
%ADD15C,0.600000*%
%ADD16R,1.800000X1.000000*%
G04 APERTURE END LIST*
D10*
X99060000Y-139700000D03*
X100010000Y-137700000D03*
X98110000Y-137700000D03*
D11*
G36*
X98059504Y-127396204D02*
G01*
X98083773Y-127399804D01*
X98107571Y-127405765D01*
X98130671Y-127414030D01*
X98152849Y-127424520D01*
X98173893Y-127437133D01*
X98193598Y-127451747D01*
X98211777Y-127468223D01*
X98228253Y-127486402D01*
X98242867Y-127506107D01*
X98255480Y-127527151D01*
X98265970Y-127549329D01*
X98274235Y-127572429D01*
X98280196Y-127596227D01*
X98283796Y-127620496D01*
X98285000Y-127645000D01*
X98285000Y-128895000D01*
X98283796Y-128919504D01*
X98280196Y-128943773D01*
X98274235Y-128967571D01*
X98265970Y-128990671D01*
X98255480Y-129012849D01*
X98242867Y-129033893D01*
X98228253Y-129053598D01*
X98211777Y-129071777D01*
X98193598Y-129088253D01*
X98173893Y-129102867D01*
X98152849Y-129115480D01*
X98130671Y-129125970D01*
X98107571Y-129134235D01*
X98083773Y-129140196D01*
X98059504Y-129143796D01*
X98035000Y-129145000D01*
X97110000Y-129145000D01*
X97085496Y-129143796D01*
X97061227Y-129140196D01*
X97037429Y-129134235D01*
X97014329Y-129125970D01*
X96992151Y-129115480D01*
X96971107Y-129102867D01*
X96951402Y-129088253D01*
X96933223Y-129071777D01*
X96916747Y-129053598D01*
X96902133Y-129033893D01*
X96889520Y-129012849D01*
X96879030Y-128990671D01*
X96870765Y-128967571D01*
X96864804Y-128943773D01*
X96861204Y-128919504D01*
X96860000Y-128895000D01*
X96860000Y-127645000D01*
X96861204Y-127620496D01*
X96864804Y-127596227D01*
X96870765Y-127572429D01*
X96879030Y-127549329D01*
X96889520Y-127527151D01*
X96902133Y-127506107D01*
X96916747Y-127486402D01*
X96933223Y-127468223D01*
X96951402Y-127451747D01*
X96971107Y-127437133D01*
X96992151Y-127424520D01*
X97014329Y-127414030D01*
X97037429Y-127405765D01*
X97061227Y-127399804D01*
X97085496Y-127396204D01*
X97110000Y-127395000D01*
X98035000Y-127395000D01*
X98059504Y-127396204D01*
X98059504Y-127396204D01*
G37*
D12*
X97572500Y-128270000D03*
D11*
G36*
X101034504Y-127396204D02*
G01*
X101058773Y-127399804D01*
X101082571Y-127405765D01*
X101105671Y-127414030D01*
X101127849Y-127424520D01*
X101148893Y-127437133D01*
X101168598Y-127451747D01*
X101186777Y-127468223D01*
X101203253Y-127486402D01*
X101217867Y-127506107D01*
X101230480Y-127527151D01*
X101240970Y-127549329D01*
X101249235Y-127572429D01*
X101255196Y-127596227D01*
X101258796Y-127620496D01*
X101260000Y-127645000D01*
X101260000Y-128895000D01*
X101258796Y-128919504D01*
X101255196Y-128943773D01*
X101249235Y-128967571D01*
X101240970Y-128990671D01*
X101230480Y-129012849D01*
X101217867Y-129033893D01*
X101203253Y-129053598D01*
X101186777Y-129071777D01*
X101168598Y-129088253D01*
X101148893Y-129102867D01*
X101127849Y-129115480D01*
X101105671Y-129125970D01*
X101082571Y-129134235D01*
X101058773Y-129140196D01*
X101034504Y-129143796D01*
X101010000Y-129145000D01*
X100085000Y-129145000D01*
X100060496Y-129143796D01*
X100036227Y-129140196D01*
X100012429Y-129134235D01*
X99989329Y-129125970D01*
X99967151Y-129115480D01*
X99946107Y-129102867D01*
X99926402Y-129088253D01*
X99908223Y-129071777D01*
X99891747Y-129053598D01*
X99877133Y-129033893D01*
X99864520Y-129012849D01*
X99854030Y-128990671D01*
X99845765Y-128967571D01*
X99839804Y-128943773D01*
X99836204Y-128919504D01*
X99835000Y-128895000D01*
X99835000Y-127645000D01*
X99836204Y-127620496D01*
X99839804Y-127596227D01*
X99845765Y-127572429D01*
X99854030Y-127549329D01*
X99864520Y-127527151D01*
X99877133Y-127506107D01*
X99891747Y-127486402D01*
X99908223Y-127468223D01*
X99926402Y-127451747D01*
X99946107Y-127437133D01*
X99967151Y-127424520D01*
X99989329Y-127414030D01*
X100012429Y-127405765D01*
X100036227Y-127399804D01*
X100060496Y-127396204D01*
X100085000Y-127395000D01*
X101010000Y-127395000D01*
X101034504Y-127396204D01*
X101034504Y-127396204D01*
G37*
D12*
X100547500Y-128270000D03*
D11*
G36*
X98495779Y-134781144D02*
G01*
X98518834Y-134784563D01*
X98541443Y-134790227D01*
X98563387Y-134798079D01*
X98584457Y-134808044D01*
X98604448Y-134820026D01*
X98623168Y-134833910D01*
X98640438Y-134849562D01*
X98656090Y-134866832D01*
X98669974Y-134885552D01*
X98681956Y-134905543D01*
X98691921Y-134926613D01*
X98699773Y-134948557D01*
X98705437Y-134971166D01*
X98708856Y-134994221D01*
X98710000Y-135017500D01*
X98710000Y-135492500D01*
X98708856Y-135515779D01*
X98705437Y-135538834D01*
X98699773Y-135561443D01*
X98691921Y-135583387D01*
X98681956Y-135604457D01*
X98669974Y-135624448D01*
X98656090Y-135643168D01*
X98640438Y-135660438D01*
X98623168Y-135676090D01*
X98604448Y-135689974D01*
X98584457Y-135701956D01*
X98563387Y-135711921D01*
X98541443Y-135719773D01*
X98518834Y-135725437D01*
X98495779Y-135728856D01*
X98472500Y-135730000D01*
X97897500Y-135730000D01*
X97874221Y-135728856D01*
X97851166Y-135725437D01*
X97828557Y-135719773D01*
X97806613Y-135711921D01*
X97785543Y-135701956D01*
X97765552Y-135689974D01*
X97746832Y-135676090D01*
X97729562Y-135660438D01*
X97713910Y-135643168D01*
X97700026Y-135624448D01*
X97688044Y-135604457D01*
X97678079Y-135583387D01*
X97670227Y-135561443D01*
X97664563Y-135538834D01*
X97661144Y-135515779D01*
X97660000Y-135492500D01*
X97660000Y-135017500D01*
X97661144Y-134994221D01*
X97664563Y-134971166D01*
X97670227Y-134948557D01*
X97678079Y-134926613D01*
X97688044Y-134905543D01*
X97700026Y-134885552D01*
X97713910Y-134866832D01*
X97729562Y-134849562D01*
X97746832Y-134833910D01*
X97765552Y-134820026D01*
X97785543Y-134808044D01*
X97806613Y-134798079D01*
X97828557Y-134790227D01*
X97851166Y-134784563D01*
X97874221Y-134781144D01*
X97897500Y-134780000D01*
X98472500Y-134780000D01*
X98495779Y-134781144D01*
X98495779Y-134781144D01*
G37*
D13*
X98185000Y-135255000D03*
D11*
G36*
X100245779Y-134781144D02*
G01*
X100268834Y-134784563D01*
X100291443Y-134790227D01*
X100313387Y-134798079D01*
X100334457Y-134808044D01*
X100354448Y-134820026D01*
X100373168Y-134833910D01*
X100390438Y-134849562D01*
X100406090Y-134866832D01*
X100419974Y-134885552D01*
X100431956Y-134905543D01*
X100441921Y-134926613D01*
X100449773Y-134948557D01*
X100455437Y-134971166D01*
X100458856Y-134994221D01*
X100460000Y-135017500D01*
X100460000Y-135492500D01*
X100458856Y-135515779D01*
X100455437Y-135538834D01*
X100449773Y-135561443D01*
X100441921Y-135583387D01*
X100431956Y-135604457D01*
X100419974Y-135624448D01*
X100406090Y-135643168D01*
X100390438Y-135660438D01*
X100373168Y-135676090D01*
X100354448Y-135689974D01*
X100334457Y-135701956D01*
X100313387Y-135711921D01*
X100291443Y-135719773D01*
X100268834Y-135725437D01*
X100245779Y-135728856D01*
X100222500Y-135730000D01*
X99647500Y-135730000D01*
X99624221Y-135728856D01*
X99601166Y-135725437D01*
X99578557Y-135719773D01*
X99556613Y-135711921D01*
X99535543Y-135701956D01*
X99515552Y-135689974D01*
X99496832Y-135676090D01*
X99479562Y-135660438D01*
X99463910Y-135643168D01*
X99450026Y-135624448D01*
X99438044Y-135604457D01*
X99428079Y-135583387D01*
X99420227Y-135561443D01*
X99414563Y-135538834D01*
X99411144Y-135515779D01*
X99410000Y-135492500D01*
X99410000Y-135017500D01*
X99411144Y-134994221D01*
X99414563Y-134971166D01*
X99420227Y-134948557D01*
X99428079Y-134926613D01*
X99438044Y-134905543D01*
X99450026Y-134885552D01*
X99463910Y-134866832D01*
X99479562Y-134849562D01*
X99496832Y-134833910D01*
X99515552Y-134820026D01*
X99535543Y-134808044D01*
X99556613Y-134798079D01*
X99578557Y-134790227D01*
X99601166Y-134784563D01*
X99624221Y-134781144D01*
X99647500Y-134780000D01*
X100222500Y-134780000D01*
X100245779Y-134781144D01*
X100245779Y-134781144D01*
G37*
D13*
X99935000Y-135255000D03*
D11*
G36*
X85104504Y-139206204D02*
G01*
X85128773Y-139209804D01*
X85152571Y-139215765D01*
X85175671Y-139224030D01*
X85197849Y-139234520D01*
X85218893Y-139247133D01*
X85238598Y-139261747D01*
X85256777Y-139278223D01*
X85273253Y-139296402D01*
X85287867Y-139316107D01*
X85300480Y-139337151D01*
X85310970Y-139359329D01*
X85319235Y-139382429D01*
X85325196Y-139406227D01*
X85328796Y-139430496D01*
X85330000Y-139455000D01*
X85330000Y-140380000D01*
X85328796Y-140404504D01*
X85325196Y-140428773D01*
X85319235Y-140452571D01*
X85310970Y-140475671D01*
X85300480Y-140497849D01*
X85287867Y-140518893D01*
X85273253Y-140538598D01*
X85256777Y-140556777D01*
X85238598Y-140573253D01*
X85218893Y-140587867D01*
X85197849Y-140600480D01*
X85175671Y-140610970D01*
X85152571Y-140619235D01*
X85128773Y-140625196D01*
X85104504Y-140628796D01*
X85080000Y-140630000D01*
X83830000Y-140630000D01*
X83805496Y-140628796D01*
X83781227Y-140625196D01*
X83757429Y-140619235D01*
X83734329Y-140610970D01*
X83712151Y-140600480D01*
X83691107Y-140587867D01*
X83671402Y-140573253D01*
X83653223Y-140556777D01*
X83636747Y-140538598D01*
X83622133Y-140518893D01*
X83609520Y-140497849D01*
X83599030Y-140475671D01*
X83590765Y-140452571D01*
X83584804Y-140428773D01*
X83581204Y-140404504D01*
X83580000Y-140380000D01*
X83580000Y-139455000D01*
X83581204Y-139430496D01*
X83584804Y-139406227D01*
X83590765Y-139382429D01*
X83599030Y-139359329D01*
X83609520Y-139337151D01*
X83622133Y-139316107D01*
X83636747Y-139296402D01*
X83653223Y-139278223D01*
X83671402Y-139261747D01*
X83691107Y-139247133D01*
X83712151Y-139234520D01*
X83734329Y-139224030D01*
X83757429Y-139215765D01*
X83781227Y-139209804D01*
X83805496Y-139206204D01*
X83830000Y-139205000D01*
X85080000Y-139205000D01*
X85104504Y-139206204D01*
X85104504Y-139206204D01*
G37*
D12*
X84455000Y-139917500D03*
D11*
G36*
X85104504Y-136231204D02*
G01*
X85128773Y-136234804D01*
X85152571Y-136240765D01*
X85175671Y-136249030D01*
X85197849Y-136259520D01*
X85218893Y-136272133D01*
X85238598Y-136286747D01*
X85256777Y-136303223D01*
X85273253Y-136321402D01*
X85287867Y-136341107D01*
X85300480Y-136362151D01*
X85310970Y-136384329D01*
X85319235Y-136407429D01*
X85325196Y-136431227D01*
X85328796Y-136455496D01*
X85330000Y-136480000D01*
X85330000Y-137405000D01*
X85328796Y-137429504D01*
X85325196Y-137453773D01*
X85319235Y-137477571D01*
X85310970Y-137500671D01*
X85300480Y-137522849D01*
X85287867Y-137543893D01*
X85273253Y-137563598D01*
X85256777Y-137581777D01*
X85238598Y-137598253D01*
X85218893Y-137612867D01*
X85197849Y-137625480D01*
X85175671Y-137635970D01*
X85152571Y-137644235D01*
X85128773Y-137650196D01*
X85104504Y-137653796D01*
X85080000Y-137655000D01*
X83830000Y-137655000D01*
X83805496Y-137653796D01*
X83781227Y-137650196D01*
X83757429Y-137644235D01*
X83734329Y-137635970D01*
X83712151Y-137625480D01*
X83691107Y-137612867D01*
X83671402Y-137598253D01*
X83653223Y-137581777D01*
X83636747Y-137563598D01*
X83622133Y-137543893D01*
X83609520Y-137522849D01*
X83599030Y-137500671D01*
X83590765Y-137477571D01*
X83584804Y-137453773D01*
X83581204Y-137429504D01*
X83580000Y-137405000D01*
X83580000Y-136480000D01*
X83581204Y-136455496D01*
X83584804Y-136431227D01*
X83590765Y-136407429D01*
X83599030Y-136384329D01*
X83609520Y-136362151D01*
X83622133Y-136341107D01*
X83636747Y-136321402D01*
X83653223Y-136303223D01*
X83671402Y-136286747D01*
X83691107Y-136272133D01*
X83712151Y-136259520D01*
X83734329Y-136249030D01*
X83757429Y-136240765D01*
X83781227Y-136234804D01*
X83805496Y-136231204D01*
X83830000Y-136230000D01*
X85080000Y-136230000D01*
X85104504Y-136231204D01*
X85104504Y-136231204D01*
G37*
D12*
X84455000Y-136942500D03*
D11*
G36*
X81294504Y-139206204D02*
G01*
X81318773Y-139209804D01*
X81342571Y-139215765D01*
X81365671Y-139224030D01*
X81387849Y-139234520D01*
X81408893Y-139247133D01*
X81428598Y-139261747D01*
X81446777Y-139278223D01*
X81463253Y-139296402D01*
X81477867Y-139316107D01*
X81490480Y-139337151D01*
X81500970Y-139359329D01*
X81509235Y-139382429D01*
X81515196Y-139406227D01*
X81518796Y-139430496D01*
X81520000Y-139455000D01*
X81520000Y-140380000D01*
X81518796Y-140404504D01*
X81515196Y-140428773D01*
X81509235Y-140452571D01*
X81500970Y-140475671D01*
X81490480Y-140497849D01*
X81477867Y-140518893D01*
X81463253Y-140538598D01*
X81446777Y-140556777D01*
X81428598Y-140573253D01*
X81408893Y-140587867D01*
X81387849Y-140600480D01*
X81365671Y-140610970D01*
X81342571Y-140619235D01*
X81318773Y-140625196D01*
X81294504Y-140628796D01*
X81270000Y-140630000D01*
X80020000Y-140630000D01*
X79995496Y-140628796D01*
X79971227Y-140625196D01*
X79947429Y-140619235D01*
X79924329Y-140610970D01*
X79902151Y-140600480D01*
X79881107Y-140587867D01*
X79861402Y-140573253D01*
X79843223Y-140556777D01*
X79826747Y-140538598D01*
X79812133Y-140518893D01*
X79799520Y-140497849D01*
X79789030Y-140475671D01*
X79780765Y-140452571D01*
X79774804Y-140428773D01*
X79771204Y-140404504D01*
X79770000Y-140380000D01*
X79770000Y-139455000D01*
X79771204Y-139430496D01*
X79774804Y-139406227D01*
X79780765Y-139382429D01*
X79789030Y-139359329D01*
X79799520Y-139337151D01*
X79812133Y-139316107D01*
X79826747Y-139296402D01*
X79843223Y-139278223D01*
X79861402Y-139261747D01*
X79881107Y-139247133D01*
X79902151Y-139234520D01*
X79924329Y-139224030D01*
X79947429Y-139215765D01*
X79971227Y-139209804D01*
X79995496Y-139206204D01*
X80020000Y-139205000D01*
X81270000Y-139205000D01*
X81294504Y-139206204D01*
X81294504Y-139206204D01*
G37*
D12*
X80645000Y-139917500D03*
D11*
G36*
X81294504Y-136231204D02*
G01*
X81318773Y-136234804D01*
X81342571Y-136240765D01*
X81365671Y-136249030D01*
X81387849Y-136259520D01*
X81408893Y-136272133D01*
X81428598Y-136286747D01*
X81446777Y-136303223D01*
X81463253Y-136321402D01*
X81477867Y-136341107D01*
X81490480Y-136362151D01*
X81500970Y-136384329D01*
X81509235Y-136407429D01*
X81515196Y-136431227D01*
X81518796Y-136455496D01*
X81520000Y-136480000D01*
X81520000Y-137405000D01*
X81518796Y-137429504D01*
X81515196Y-137453773D01*
X81509235Y-137477571D01*
X81500970Y-137500671D01*
X81490480Y-137522849D01*
X81477867Y-137543893D01*
X81463253Y-137563598D01*
X81446777Y-137581777D01*
X81428598Y-137598253D01*
X81408893Y-137612867D01*
X81387849Y-137625480D01*
X81365671Y-137635970D01*
X81342571Y-137644235D01*
X81318773Y-137650196D01*
X81294504Y-137653796D01*
X81270000Y-137655000D01*
X80020000Y-137655000D01*
X79995496Y-137653796D01*
X79971227Y-137650196D01*
X79947429Y-137644235D01*
X79924329Y-137635970D01*
X79902151Y-137625480D01*
X79881107Y-137612867D01*
X79861402Y-137598253D01*
X79843223Y-137581777D01*
X79826747Y-137563598D01*
X79812133Y-137543893D01*
X79799520Y-137522849D01*
X79789030Y-137500671D01*
X79780765Y-137477571D01*
X79774804Y-137453773D01*
X79771204Y-137429504D01*
X79770000Y-137405000D01*
X79770000Y-136480000D01*
X79771204Y-136455496D01*
X79774804Y-136431227D01*
X79780765Y-136407429D01*
X79789030Y-136384329D01*
X79799520Y-136362151D01*
X79812133Y-136341107D01*
X79826747Y-136321402D01*
X79843223Y-136303223D01*
X79861402Y-136286747D01*
X79881107Y-136272133D01*
X79902151Y-136259520D01*
X79924329Y-136249030D01*
X79947429Y-136240765D01*
X79971227Y-136234804D01*
X79995496Y-136231204D01*
X80020000Y-136230000D01*
X81270000Y-136230000D01*
X81294504Y-136231204D01*
X81294504Y-136231204D01*
G37*
D12*
X80645000Y-136942500D03*
D11*
G36*
X95264504Y-133073704D02*
G01*
X95288773Y-133077304D01*
X95312571Y-133083265D01*
X95335671Y-133091530D01*
X95357849Y-133102020D01*
X95378893Y-133114633D01*
X95398598Y-133129247D01*
X95416777Y-133145723D01*
X95433253Y-133163902D01*
X95447867Y-133183607D01*
X95460480Y-133204651D01*
X95470970Y-133226829D01*
X95479235Y-133249929D01*
X95485196Y-133273727D01*
X95488796Y-133297996D01*
X95490000Y-133322500D01*
X95490000Y-134247500D01*
X95488796Y-134272004D01*
X95485196Y-134296273D01*
X95479235Y-134320071D01*
X95470970Y-134343171D01*
X95460480Y-134365349D01*
X95447867Y-134386393D01*
X95433253Y-134406098D01*
X95416777Y-134424277D01*
X95398598Y-134440753D01*
X95378893Y-134455367D01*
X95357849Y-134467980D01*
X95335671Y-134478470D01*
X95312571Y-134486735D01*
X95288773Y-134492696D01*
X95264504Y-134496296D01*
X95240000Y-134497500D01*
X93990000Y-134497500D01*
X93965496Y-134496296D01*
X93941227Y-134492696D01*
X93917429Y-134486735D01*
X93894329Y-134478470D01*
X93872151Y-134467980D01*
X93851107Y-134455367D01*
X93831402Y-134440753D01*
X93813223Y-134424277D01*
X93796747Y-134406098D01*
X93782133Y-134386393D01*
X93769520Y-134365349D01*
X93759030Y-134343171D01*
X93750765Y-134320071D01*
X93744804Y-134296273D01*
X93741204Y-134272004D01*
X93740000Y-134247500D01*
X93740000Y-133322500D01*
X93741204Y-133297996D01*
X93744804Y-133273727D01*
X93750765Y-133249929D01*
X93759030Y-133226829D01*
X93769520Y-133204651D01*
X93782133Y-133183607D01*
X93796747Y-133163902D01*
X93813223Y-133145723D01*
X93831402Y-133129247D01*
X93851107Y-133114633D01*
X93872151Y-133102020D01*
X93894329Y-133091530D01*
X93917429Y-133083265D01*
X93941227Y-133077304D01*
X93965496Y-133073704D01*
X93990000Y-133072500D01*
X95240000Y-133072500D01*
X95264504Y-133073704D01*
X95264504Y-133073704D01*
G37*
D12*
X94615000Y-133785000D03*
D11*
G36*
X95264504Y-130098704D02*
G01*
X95288773Y-130102304D01*
X95312571Y-130108265D01*
X95335671Y-130116530D01*
X95357849Y-130127020D01*
X95378893Y-130139633D01*
X95398598Y-130154247D01*
X95416777Y-130170723D01*
X95433253Y-130188902D01*
X95447867Y-130208607D01*
X95460480Y-130229651D01*
X95470970Y-130251829D01*
X95479235Y-130274929D01*
X95485196Y-130298727D01*
X95488796Y-130322996D01*
X95490000Y-130347500D01*
X95490000Y-131272500D01*
X95488796Y-131297004D01*
X95485196Y-131321273D01*
X95479235Y-131345071D01*
X95470970Y-131368171D01*
X95460480Y-131390349D01*
X95447867Y-131411393D01*
X95433253Y-131431098D01*
X95416777Y-131449277D01*
X95398598Y-131465753D01*
X95378893Y-131480367D01*
X95357849Y-131492980D01*
X95335671Y-131503470D01*
X95312571Y-131511735D01*
X95288773Y-131517696D01*
X95264504Y-131521296D01*
X95240000Y-131522500D01*
X93990000Y-131522500D01*
X93965496Y-131521296D01*
X93941227Y-131517696D01*
X93917429Y-131511735D01*
X93894329Y-131503470D01*
X93872151Y-131492980D01*
X93851107Y-131480367D01*
X93831402Y-131465753D01*
X93813223Y-131449277D01*
X93796747Y-131431098D01*
X93782133Y-131411393D01*
X93769520Y-131390349D01*
X93759030Y-131368171D01*
X93750765Y-131345071D01*
X93744804Y-131321273D01*
X93741204Y-131297004D01*
X93740000Y-131272500D01*
X93740000Y-130347500D01*
X93741204Y-130322996D01*
X93744804Y-130298727D01*
X93750765Y-130274929D01*
X93759030Y-130251829D01*
X93769520Y-130229651D01*
X93782133Y-130208607D01*
X93796747Y-130188902D01*
X93813223Y-130170723D01*
X93831402Y-130154247D01*
X93851107Y-130139633D01*
X93872151Y-130127020D01*
X93894329Y-130116530D01*
X93917429Y-130108265D01*
X93941227Y-130102304D01*
X93965496Y-130098704D01*
X93990000Y-130097500D01*
X95240000Y-130097500D01*
X95264504Y-130098704D01*
X95264504Y-130098704D01*
G37*
D12*
X94615000Y-130810000D03*
D11*
G36*
X99074504Y-120791204D02*
G01*
X99098773Y-120794804D01*
X99122571Y-120800765D01*
X99145671Y-120809030D01*
X99167849Y-120819520D01*
X99188893Y-120832133D01*
X99208598Y-120846747D01*
X99226777Y-120863223D01*
X99243253Y-120881402D01*
X99257867Y-120901107D01*
X99270480Y-120922151D01*
X99280970Y-120944329D01*
X99289235Y-120967429D01*
X99295196Y-120991227D01*
X99298796Y-121015496D01*
X99300000Y-121040000D01*
X99300000Y-121965000D01*
X99298796Y-121989504D01*
X99295196Y-122013773D01*
X99289235Y-122037571D01*
X99280970Y-122060671D01*
X99270480Y-122082849D01*
X99257867Y-122103893D01*
X99243253Y-122123598D01*
X99226777Y-122141777D01*
X99208598Y-122158253D01*
X99188893Y-122172867D01*
X99167849Y-122185480D01*
X99145671Y-122195970D01*
X99122571Y-122204235D01*
X99098773Y-122210196D01*
X99074504Y-122213796D01*
X99050000Y-122215000D01*
X97800000Y-122215000D01*
X97775496Y-122213796D01*
X97751227Y-122210196D01*
X97727429Y-122204235D01*
X97704329Y-122195970D01*
X97682151Y-122185480D01*
X97661107Y-122172867D01*
X97641402Y-122158253D01*
X97623223Y-122141777D01*
X97606747Y-122123598D01*
X97592133Y-122103893D01*
X97579520Y-122082849D01*
X97569030Y-122060671D01*
X97560765Y-122037571D01*
X97554804Y-122013773D01*
X97551204Y-121989504D01*
X97550000Y-121965000D01*
X97550000Y-121040000D01*
X97551204Y-121015496D01*
X97554804Y-120991227D01*
X97560765Y-120967429D01*
X97569030Y-120944329D01*
X97579520Y-120922151D01*
X97592133Y-120901107D01*
X97606747Y-120881402D01*
X97623223Y-120863223D01*
X97641402Y-120846747D01*
X97661107Y-120832133D01*
X97682151Y-120819520D01*
X97704329Y-120809030D01*
X97727429Y-120800765D01*
X97751227Y-120794804D01*
X97775496Y-120791204D01*
X97800000Y-120790000D01*
X99050000Y-120790000D01*
X99074504Y-120791204D01*
X99074504Y-120791204D01*
G37*
D12*
X98425000Y-121502500D03*
D11*
G36*
X99074504Y-117816204D02*
G01*
X99098773Y-117819804D01*
X99122571Y-117825765D01*
X99145671Y-117834030D01*
X99167849Y-117844520D01*
X99188893Y-117857133D01*
X99208598Y-117871747D01*
X99226777Y-117888223D01*
X99243253Y-117906402D01*
X99257867Y-117926107D01*
X99270480Y-117947151D01*
X99280970Y-117969329D01*
X99289235Y-117992429D01*
X99295196Y-118016227D01*
X99298796Y-118040496D01*
X99300000Y-118065000D01*
X99300000Y-118990000D01*
X99298796Y-119014504D01*
X99295196Y-119038773D01*
X99289235Y-119062571D01*
X99280970Y-119085671D01*
X99270480Y-119107849D01*
X99257867Y-119128893D01*
X99243253Y-119148598D01*
X99226777Y-119166777D01*
X99208598Y-119183253D01*
X99188893Y-119197867D01*
X99167849Y-119210480D01*
X99145671Y-119220970D01*
X99122571Y-119229235D01*
X99098773Y-119235196D01*
X99074504Y-119238796D01*
X99050000Y-119240000D01*
X97800000Y-119240000D01*
X97775496Y-119238796D01*
X97751227Y-119235196D01*
X97727429Y-119229235D01*
X97704329Y-119220970D01*
X97682151Y-119210480D01*
X97661107Y-119197867D01*
X97641402Y-119183253D01*
X97623223Y-119166777D01*
X97606747Y-119148598D01*
X97592133Y-119128893D01*
X97579520Y-119107849D01*
X97569030Y-119085671D01*
X97560765Y-119062571D01*
X97554804Y-119038773D01*
X97551204Y-119014504D01*
X97550000Y-118990000D01*
X97550000Y-118065000D01*
X97551204Y-118040496D01*
X97554804Y-118016227D01*
X97560765Y-117992429D01*
X97569030Y-117969329D01*
X97579520Y-117947151D01*
X97592133Y-117926107D01*
X97606747Y-117906402D01*
X97623223Y-117888223D01*
X97641402Y-117871747D01*
X97661107Y-117857133D01*
X97682151Y-117844520D01*
X97704329Y-117834030D01*
X97727429Y-117825765D01*
X97751227Y-117819804D01*
X97775496Y-117816204D01*
X97800000Y-117815000D01*
X99050000Y-117815000D01*
X99074504Y-117816204D01*
X99074504Y-117816204D01*
G37*
D12*
X98425000Y-118527500D03*
D11*
G36*
X104154504Y-131586204D02*
G01*
X104178773Y-131589804D01*
X104202571Y-131595765D01*
X104225671Y-131604030D01*
X104247849Y-131614520D01*
X104268893Y-131627133D01*
X104288598Y-131641747D01*
X104306777Y-131658223D01*
X104323253Y-131676402D01*
X104337867Y-131696107D01*
X104350480Y-131717151D01*
X104360970Y-131739329D01*
X104369235Y-131762429D01*
X104375196Y-131786227D01*
X104378796Y-131810496D01*
X104380000Y-131835000D01*
X104380000Y-132760000D01*
X104378796Y-132784504D01*
X104375196Y-132808773D01*
X104369235Y-132832571D01*
X104360970Y-132855671D01*
X104350480Y-132877849D01*
X104337867Y-132898893D01*
X104323253Y-132918598D01*
X104306777Y-132936777D01*
X104288598Y-132953253D01*
X104268893Y-132967867D01*
X104247849Y-132980480D01*
X104225671Y-132990970D01*
X104202571Y-132999235D01*
X104178773Y-133005196D01*
X104154504Y-133008796D01*
X104130000Y-133010000D01*
X102880000Y-133010000D01*
X102855496Y-133008796D01*
X102831227Y-133005196D01*
X102807429Y-132999235D01*
X102784329Y-132990970D01*
X102762151Y-132980480D01*
X102741107Y-132967867D01*
X102721402Y-132953253D01*
X102703223Y-132936777D01*
X102686747Y-132918598D01*
X102672133Y-132898893D01*
X102659520Y-132877849D01*
X102649030Y-132855671D01*
X102640765Y-132832571D01*
X102634804Y-132808773D01*
X102631204Y-132784504D01*
X102630000Y-132760000D01*
X102630000Y-131835000D01*
X102631204Y-131810496D01*
X102634804Y-131786227D01*
X102640765Y-131762429D01*
X102649030Y-131739329D01*
X102659520Y-131717151D01*
X102672133Y-131696107D01*
X102686747Y-131676402D01*
X102703223Y-131658223D01*
X102721402Y-131641747D01*
X102741107Y-131627133D01*
X102762151Y-131614520D01*
X102784329Y-131604030D01*
X102807429Y-131595765D01*
X102831227Y-131589804D01*
X102855496Y-131586204D01*
X102880000Y-131585000D01*
X104130000Y-131585000D01*
X104154504Y-131586204D01*
X104154504Y-131586204D01*
G37*
D12*
X103505000Y-132297500D03*
D11*
G36*
X104154504Y-128611204D02*
G01*
X104178773Y-128614804D01*
X104202571Y-128620765D01*
X104225671Y-128629030D01*
X104247849Y-128639520D01*
X104268893Y-128652133D01*
X104288598Y-128666747D01*
X104306777Y-128683223D01*
X104323253Y-128701402D01*
X104337867Y-128721107D01*
X104350480Y-128742151D01*
X104360970Y-128764329D01*
X104369235Y-128787429D01*
X104375196Y-128811227D01*
X104378796Y-128835496D01*
X104380000Y-128860000D01*
X104380000Y-129785000D01*
X104378796Y-129809504D01*
X104375196Y-129833773D01*
X104369235Y-129857571D01*
X104360970Y-129880671D01*
X104350480Y-129902849D01*
X104337867Y-129923893D01*
X104323253Y-129943598D01*
X104306777Y-129961777D01*
X104288598Y-129978253D01*
X104268893Y-129992867D01*
X104247849Y-130005480D01*
X104225671Y-130015970D01*
X104202571Y-130024235D01*
X104178773Y-130030196D01*
X104154504Y-130033796D01*
X104130000Y-130035000D01*
X102880000Y-130035000D01*
X102855496Y-130033796D01*
X102831227Y-130030196D01*
X102807429Y-130024235D01*
X102784329Y-130015970D01*
X102762151Y-130005480D01*
X102741107Y-129992867D01*
X102721402Y-129978253D01*
X102703223Y-129961777D01*
X102686747Y-129943598D01*
X102672133Y-129923893D01*
X102659520Y-129902849D01*
X102649030Y-129880671D01*
X102640765Y-129857571D01*
X102634804Y-129833773D01*
X102631204Y-129809504D01*
X102630000Y-129785000D01*
X102630000Y-128860000D01*
X102631204Y-128835496D01*
X102634804Y-128811227D01*
X102640765Y-128787429D01*
X102649030Y-128764329D01*
X102659520Y-128742151D01*
X102672133Y-128721107D01*
X102686747Y-128701402D01*
X102703223Y-128683223D01*
X102721402Y-128666747D01*
X102741107Y-128652133D01*
X102762151Y-128639520D01*
X102784329Y-128629030D01*
X102807429Y-128620765D01*
X102831227Y-128614804D01*
X102855496Y-128611204D01*
X102880000Y-128610000D01*
X104130000Y-128610000D01*
X104154504Y-128611204D01*
X104154504Y-128611204D01*
G37*
D12*
X103505000Y-129322500D03*
D11*
G36*
X97842004Y-131206204D02*
G01*
X97866273Y-131209804D01*
X97890071Y-131215765D01*
X97913171Y-131224030D01*
X97935349Y-131234520D01*
X97956393Y-131247133D01*
X97976098Y-131261747D01*
X97994277Y-131278223D01*
X98010753Y-131296402D01*
X98025367Y-131316107D01*
X98037980Y-131337151D01*
X98048470Y-131359329D01*
X98056735Y-131382429D01*
X98062696Y-131406227D01*
X98066296Y-131430496D01*
X98067500Y-131455000D01*
X98067500Y-132705000D01*
X98066296Y-132729504D01*
X98062696Y-132753773D01*
X98056735Y-132777571D01*
X98048470Y-132800671D01*
X98037980Y-132822849D01*
X98025367Y-132843893D01*
X98010753Y-132863598D01*
X97994277Y-132881777D01*
X97976098Y-132898253D01*
X97956393Y-132912867D01*
X97935349Y-132925480D01*
X97913171Y-132935970D01*
X97890071Y-132944235D01*
X97866273Y-132950196D01*
X97842004Y-132953796D01*
X97817500Y-132955000D01*
X96892500Y-132955000D01*
X96867996Y-132953796D01*
X96843727Y-132950196D01*
X96819929Y-132944235D01*
X96796829Y-132935970D01*
X96774651Y-132925480D01*
X96753607Y-132912867D01*
X96733902Y-132898253D01*
X96715723Y-132881777D01*
X96699247Y-132863598D01*
X96684633Y-132843893D01*
X96672020Y-132822849D01*
X96661530Y-132800671D01*
X96653265Y-132777571D01*
X96647304Y-132753773D01*
X96643704Y-132729504D01*
X96642500Y-132705000D01*
X96642500Y-131455000D01*
X96643704Y-131430496D01*
X96647304Y-131406227D01*
X96653265Y-131382429D01*
X96661530Y-131359329D01*
X96672020Y-131337151D01*
X96684633Y-131316107D01*
X96699247Y-131296402D01*
X96715723Y-131278223D01*
X96733902Y-131261747D01*
X96753607Y-131247133D01*
X96774651Y-131234520D01*
X96796829Y-131224030D01*
X96819929Y-131215765D01*
X96843727Y-131209804D01*
X96867996Y-131206204D01*
X96892500Y-131205000D01*
X97817500Y-131205000D01*
X97842004Y-131206204D01*
X97842004Y-131206204D01*
G37*
D12*
X97355000Y-132080000D03*
D11*
G36*
X100817004Y-131206204D02*
G01*
X100841273Y-131209804D01*
X100865071Y-131215765D01*
X100888171Y-131224030D01*
X100910349Y-131234520D01*
X100931393Y-131247133D01*
X100951098Y-131261747D01*
X100969277Y-131278223D01*
X100985753Y-131296402D01*
X101000367Y-131316107D01*
X101012980Y-131337151D01*
X101023470Y-131359329D01*
X101031735Y-131382429D01*
X101037696Y-131406227D01*
X101041296Y-131430496D01*
X101042500Y-131455000D01*
X101042500Y-132705000D01*
X101041296Y-132729504D01*
X101037696Y-132753773D01*
X101031735Y-132777571D01*
X101023470Y-132800671D01*
X101012980Y-132822849D01*
X101000367Y-132843893D01*
X100985753Y-132863598D01*
X100969277Y-132881777D01*
X100951098Y-132898253D01*
X100931393Y-132912867D01*
X100910349Y-132925480D01*
X100888171Y-132935970D01*
X100865071Y-132944235D01*
X100841273Y-132950196D01*
X100817004Y-132953796D01*
X100792500Y-132955000D01*
X99867500Y-132955000D01*
X99842996Y-132953796D01*
X99818727Y-132950196D01*
X99794929Y-132944235D01*
X99771829Y-132935970D01*
X99749651Y-132925480D01*
X99728607Y-132912867D01*
X99708902Y-132898253D01*
X99690723Y-132881777D01*
X99674247Y-132863598D01*
X99659633Y-132843893D01*
X99647020Y-132822849D01*
X99636530Y-132800671D01*
X99628265Y-132777571D01*
X99622304Y-132753773D01*
X99618704Y-132729504D01*
X99617500Y-132705000D01*
X99617500Y-131455000D01*
X99618704Y-131430496D01*
X99622304Y-131406227D01*
X99628265Y-131382429D01*
X99636530Y-131359329D01*
X99647020Y-131337151D01*
X99659633Y-131316107D01*
X99674247Y-131296402D01*
X99690723Y-131278223D01*
X99708902Y-131261747D01*
X99728607Y-131247133D01*
X99749651Y-131234520D01*
X99771829Y-131224030D01*
X99794929Y-131215765D01*
X99818727Y-131209804D01*
X99842996Y-131206204D01*
X99867500Y-131205000D01*
X100792500Y-131205000D01*
X100817004Y-131206204D01*
X100817004Y-131206204D01*
G37*
D12*
X100330000Y-132080000D03*
D11*
G36*
X106732004Y-75326204D02*
G01*
X106756273Y-75329804D01*
X106780071Y-75335765D01*
X106803171Y-75344030D01*
X106825349Y-75354520D01*
X106846393Y-75367133D01*
X106866098Y-75381747D01*
X106884277Y-75398223D01*
X106900753Y-75416402D01*
X106915367Y-75436107D01*
X106927980Y-75457151D01*
X106938470Y-75479329D01*
X106946735Y-75502429D01*
X106952696Y-75526227D01*
X106956296Y-75550496D01*
X106957500Y-75575000D01*
X106957500Y-76825000D01*
X106956296Y-76849504D01*
X106952696Y-76873773D01*
X106946735Y-76897571D01*
X106938470Y-76920671D01*
X106927980Y-76942849D01*
X106915367Y-76963893D01*
X106900753Y-76983598D01*
X106884277Y-77001777D01*
X106866098Y-77018253D01*
X106846393Y-77032867D01*
X106825349Y-77045480D01*
X106803171Y-77055970D01*
X106780071Y-77064235D01*
X106756273Y-77070196D01*
X106732004Y-77073796D01*
X106707500Y-77075000D01*
X105782500Y-77075000D01*
X105757996Y-77073796D01*
X105733727Y-77070196D01*
X105709929Y-77064235D01*
X105686829Y-77055970D01*
X105664651Y-77045480D01*
X105643607Y-77032867D01*
X105623902Y-77018253D01*
X105605723Y-77001777D01*
X105589247Y-76983598D01*
X105574633Y-76963893D01*
X105562020Y-76942849D01*
X105551530Y-76920671D01*
X105543265Y-76897571D01*
X105537304Y-76873773D01*
X105533704Y-76849504D01*
X105532500Y-76825000D01*
X105532500Y-75575000D01*
X105533704Y-75550496D01*
X105537304Y-75526227D01*
X105543265Y-75502429D01*
X105551530Y-75479329D01*
X105562020Y-75457151D01*
X105574633Y-75436107D01*
X105589247Y-75416402D01*
X105605723Y-75398223D01*
X105623902Y-75381747D01*
X105643607Y-75367133D01*
X105664651Y-75354520D01*
X105686829Y-75344030D01*
X105709929Y-75335765D01*
X105733727Y-75329804D01*
X105757996Y-75326204D01*
X105782500Y-75325000D01*
X106707500Y-75325000D01*
X106732004Y-75326204D01*
X106732004Y-75326204D01*
G37*
D12*
X106245000Y-76200000D03*
D11*
G36*
X109707004Y-75326204D02*
G01*
X109731273Y-75329804D01*
X109755071Y-75335765D01*
X109778171Y-75344030D01*
X109800349Y-75354520D01*
X109821393Y-75367133D01*
X109841098Y-75381747D01*
X109859277Y-75398223D01*
X109875753Y-75416402D01*
X109890367Y-75436107D01*
X109902980Y-75457151D01*
X109913470Y-75479329D01*
X109921735Y-75502429D01*
X109927696Y-75526227D01*
X109931296Y-75550496D01*
X109932500Y-75575000D01*
X109932500Y-76825000D01*
X109931296Y-76849504D01*
X109927696Y-76873773D01*
X109921735Y-76897571D01*
X109913470Y-76920671D01*
X109902980Y-76942849D01*
X109890367Y-76963893D01*
X109875753Y-76983598D01*
X109859277Y-77001777D01*
X109841098Y-77018253D01*
X109821393Y-77032867D01*
X109800349Y-77045480D01*
X109778171Y-77055970D01*
X109755071Y-77064235D01*
X109731273Y-77070196D01*
X109707004Y-77073796D01*
X109682500Y-77075000D01*
X108757500Y-77075000D01*
X108732996Y-77073796D01*
X108708727Y-77070196D01*
X108684929Y-77064235D01*
X108661829Y-77055970D01*
X108639651Y-77045480D01*
X108618607Y-77032867D01*
X108598902Y-77018253D01*
X108580723Y-77001777D01*
X108564247Y-76983598D01*
X108549633Y-76963893D01*
X108537020Y-76942849D01*
X108526530Y-76920671D01*
X108518265Y-76897571D01*
X108512304Y-76873773D01*
X108508704Y-76849504D01*
X108507500Y-76825000D01*
X108507500Y-75575000D01*
X108508704Y-75550496D01*
X108512304Y-75526227D01*
X108518265Y-75502429D01*
X108526530Y-75479329D01*
X108537020Y-75457151D01*
X108549633Y-75436107D01*
X108564247Y-75416402D01*
X108580723Y-75398223D01*
X108598902Y-75381747D01*
X108618607Y-75367133D01*
X108639651Y-75354520D01*
X108661829Y-75344030D01*
X108684929Y-75335765D01*
X108708727Y-75329804D01*
X108732996Y-75326204D01*
X108757500Y-75325000D01*
X109682500Y-75325000D01*
X109707004Y-75326204D01*
X109707004Y-75326204D01*
G37*
D12*
X109220000Y-76200000D03*
D14*
X119480000Y-96520000D03*
X93880000Y-96520000D03*
D11*
G36*
X113934703Y-82885722D02*
G01*
X113949264Y-82887882D01*
X113963543Y-82891459D01*
X113977403Y-82896418D01*
X113990710Y-82902712D01*
X114003336Y-82910280D01*
X114015159Y-82919048D01*
X114026066Y-82928934D01*
X114035952Y-82939841D01*
X114044720Y-82951664D01*
X114052288Y-82964290D01*
X114058582Y-82977597D01*
X114063541Y-82991457D01*
X114067118Y-83005736D01*
X114069278Y-83020297D01*
X114070000Y-83035000D01*
X114070000Y-83335000D01*
X114069278Y-83349703D01*
X114067118Y-83364264D01*
X114063541Y-83378543D01*
X114058582Y-83392403D01*
X114052288Y-83405710D01*
X114044720Y-83418336D01*
X114035952Y-83430159D01*
X114026066Y-83441066D01*
X114015159Y-83450952D01*
X114003336Y-83459720D01*
X113990710Y-83467288D01*
X113977403Y-83473582D01*
X113963543Y-83478541D01*
X113949264Y-83482118D01*
X113934703Y-83484278D01*
X113920000Y-83485000D01*
X112270000Y-83485000D01*
X112255297Y-83484278D01*
X112240736Y-83482118D01*
X112226457Y-83478541D01*
X112212597Y-83473582D01*
X112199290Y-83467288D01*
X112186664Y-83459720D01*
X112174841Y-83450952D01*
X112163934Y-83441066D01*
X112154048Y-83430159D01*
X112145280Y-83418336D01*
X112137712Y-83405710D01*
X112131418Y-83392403D01*
X112126459Y-83378543D01*
X112122882Y-83364264D01*
X112120722Y-83349703D01*
X112120000Y-83335000D01*
X112120000Y-83035000D01*
X112120722Y-83020297D01*
X112122882Y-83005736D01*
X112126459Y-82991457D01*
X112131418Y-82977597D01*
X112137712Y-82964290D01*
X112145280Y-82951664D01*
X112154048Y-82939841D01*
X112163934Y-82928934D01*
X112174841Y-82919048D01*
X112186664Y-82910280D01*
X112199290Y-82902712D01*
X112212597Y-82896418D01*
X112226457Y-82891459D01*
X112240736Y-82887882D01*
X112255297Y-82885722D01*
X112270000Y-82885000D01*
X113920000Y-82885000D01*
X113934703Y-82885722D01*
X113934703Y-82885722D01*
G37*
D15*
X113095000Y-83185000D03*
D11*
G36*
X113934703Y-81615722D02*
G01*
X113949264Y-81617882D01*
X113963543Y-81621459D01*
X113977403Y-81626418D01*
X113990710Y-81632712D01*
X114003336Y-81640280D01*
X114015159Y-81649048D01*
X114026066Y-81658934D01*
X114035952Y-81669841D01*
X114044720Y-81681664D01*
X114052288Y-81694290D01*
X114058582Y-81707597D01*
X114063541Y-81721457D01*
X114067118Y-81735736D01*
X114069278Y-81750297D01*
X114070000Y-81765000D01*
X114070000Y-82065000D01*
X114069278Y-82079703D01*
X114067118Y-82094264D01*
X114063541Y-82108543D01*
X114058582Y-82122403D01*
X114052288Y-82135710D01*
X114044720Y-82148336D01*
X114035952Y-82160159D01*
X114026066Y-82171066D01*
X114015159Y-82180952D01*
X114003336Y-82189720D01*
X113990710Y-82197288D01*
X113977403Y-82203582D01*
X113963543Y-82208541D01*
X113949264Y-82212118D01*
X113934703Y-82214278D01*
X113920000Y-82215000D01*
X112270000Y-82215000D01*
X112255297Y-82214278D01*
X112240736Y-82212118D01*
X112226457Y-82208541D01*
X112212597Y-82203582D01*
X112199290Y-82197288D01*
X112186664Y-82189720D01*
X112174841Y-82180952D01*
X112163934Y-82171066D01*
X112154048Y-82160159D01*
X112145280Y-82148336D01*
X112137712Y-82135710D01*
X112131418Y-82122403D01*
X112126459Y-82108543D01*
X112122882Y-82094264D01*
X112120722Y-82079703D01*
X112120000Y-82065000D01*
X112120000Y-81765000D01*
X112120722Y-81750297D01*
X112122882Y-81735736D01*
X112126459Y-81721457D01*
X112131418Y-81707597D01*
X112137712Y-81694290D01*
X112145280Y-81681664D01*
X112154048Y-81669841D01*
X112163934Y-81658934D01*
X112174841Y-81649048D01*
X112186664Y-81640280D01*
X112199290Y-81632712D01*
X112212597Y-81626418D01*
X112226457Y-81621459D01*
X112240736Y-81617882D01*
X112255297Y-81615722D01*
X112270000Y-81615000D01*
X113920000Y-81615000D01*
X113934703Y-81615722D01*
X113934703Y-81615722D01*
G37*
D15*
X113095000Y-81915000D03*
D11*
G36*
X113934703Y-80345722D02*
G01*
X113949264Y-80347882D01*
X113963543Y-80351459D01*
X113977403Y-80356418D01*
X113990710Y-80362712D01*
X114003336Y-80370280D01*
X114015159Y-80379048D01*
X114026066Y-80388934D01*
X114035952Y-80399841D01*
X114044720Y-80411664D01*
X114052288Y-80424290D01*
X114058582Y-80437597D01*
X114063541Y-80451457D01*
X114067118Y-80465736D01*
X114069278Y-80480297D01*
X114070000Y-80495000D01*
X114070000Y-80795000D01*
X114069278Y-80809703D01*
X114067118Y-80824264D01*
X114063541Y-80838543D01*
X114058582Y-80852403D01*
X114052288Y-80865710D01*
X114044720Y-80878336D01*
X114035952Y-80890159D01*
X114026066Y-80901066D01*
X114015159Y-80910952D01*
X114003336Y-80919720D01*
X113990710Y-80927288D01*
X113977403Y-80933582D01*
X113963543Y-80938541D01*
X113949264Y-80942118D01*
X113934703Y-80944278D01*
X113920000Y-80945000D01*
X112270000Y-80945000D01*
X112255297Y-80944278D01*
X112240736Y-80942118D01*
X112226457Y-80938541D01*
X112212597Y-80933582D01*
X112199290Y-80927288D01*
X112186664Y-80919720D01*
X112174841Y-80910952D01*
X112163934Y-80901066D01*
X112154048Y-80890159D01*
X112145280Y-80878336D01*
X112137712Y-80865710D01*
X112131418Y-80852403D01*
X112126459Y-80838543D01*
X112122882Y-80824264D01*
X112120722Y-80809703D01*
X112120000Y-80795000D01*
X112120000Y-80495000D01*
X112120722Y-80480297D01*
X112122882Y-80465736D01*
X112126459Y-80451457D01*
X112131418Y-80437597D01*
X112137712Y-80424290D01*
X112145280Y-80411664D01*
X112154048Y-80399841D01*
X112163934Y-80388934D01*
X112174841Y-80379048D01*
X112186664Y-80370280D01*
X112199290Y-80362712D01*
X112212597Y-80356418D01*
X112226457Y-80351459D01*
X112240736Y-80347882D01*
X112255297Y-80345722D01*
X112270000Y-80345000D01*
X113920000Y-80345000D01*
X113934703Y-80345722D01*
X113934703Y-80345722D01*
G37*
D15*
X113095000Y-80645000D03*
D11*
G36*
X113934703Y-79075722D02*
G01*
X113949264Y-79077882D01*
X113963543Y-79081459D01*
X113977403Y-79086418D01*
X113990710Y-79092712D01*
X114003336Y-79100280D01*
X114015159Y-79109048D01*
X114026066Y-79118934D01*
X114035952Y-79129841D01*
X114044720Y-79141664D01*
X114052288Y-79154290D01*
X114058582Y-79167597D01*
X114063541Y-79181457D01*
X114067118Y-79195736D01*
X114069278Y-79210297D01*
X114070000Y-79225000D01*
X114070000Y-79525000D01*
X114069278Y-79539703D01*
X114067118Y-79554264D01*
X114063541Y-79568543D01*
X114058582Y-79582403D01*
X114052288Y-79595710D01*
X114044720Y-79608336D01*
X114035952Y-79620159D01*
X114026066Y-79631066D01*
X114015159Y-79640952D01*
X114003336Y-79649720D01*
X113990710Y-79657288D01*
X113977403Y-79663582D01*
X113963543Y-79668541D01*
X113949264Y-79672118D01*
X113934703Y-79674278D01*
X113920000Y-79675000D01*
X112270000Y-79675000D01*
X112255297Y-79674278D01*
X112240736Y-79672118D01*
X112226457Y-79668541D01*
X112212597Y-79663582D01*
X112199290Y-79657288D01*
X112186664Y-79649720D01*
X112174841Y-79640952D01*
X112163934Y-79631066D01*
X112154048Y-79620159D01*
X112145280Y-79608336D01*
X112137712Y-79595710D01*
X112131418Y-79582403D01*
X112126459Y-79568543D01*
X112122882Y-79554264D01*
X112120722Y-79539703D01*
X112120000Y-79525000D01*
X112120000Y-79225000D01*
X112120722Y-79210297D01*
X112122882Y-79195736D01*
X112126459Y-79181457D01*
X112131418Y-79167597D01*
X112137712Y-79154290D01*
X112145280Y-79141664D01*
X112154048Y-79129841D01*
X112163934Y-79118934D01*
X112174841Y-79109048D01*
X112186664Y-79100280D01*
X112199290Y-79092712D01*
X112212597Y-79086418D01*
X112226457Y-79081459D01*
X112240736Y-79077882D01*
X112255297Y-79075722D01*
X112270000Y-79075000D01*
X113920000Y-79075000D01*
X113934703Y-79075722D01*
X113934703Y-79075722D01*
G37*
D15*
X113095000Y-79375000D03*
D11*
G36*
X118884703Y-79075722D02*
G01*
X118899264Y-79077882D01*
X118913543Y-79081459D01*
X118927403Y-79086418D01*
X118940710Y-79092712D01*
X118953336Y-79100280D01*
X118965159Y-79109048D01*
X118976066Y-79118934D01*
X118985952Y-79129841D01*
X118994720Y-79141664D01*
X119002288Y-79154290D01*
X119008582Y-79167597D01*
X119013541Y-79181457D01*
X119017118Y-79195736D01*
X119019278Y-79210297D01*
X119020000Y-79225000D01*
X119020000Y-79525000D01*
X119019278Y-79539703D01*
X119017118Y-79554264D01*
X119013541Y-79568543D01*
X119008582Y-79582403D01*
X119002288Y-79595710D01*
X118994720Y-79608336D01*
X118985952Y-79620159D01*
X118976066Y-79631066D01*
X118965159Y-79640952D01*
X118953336Y-79649720D01*
X118940710Y-79657288D01*
X118927403Y-79663582D01*
X118913543Y-79668541D01*
X118899264Y-79672118D01*
X118884703Y-79674278D01*
X118870000Y-79675000D01*
X117220000Y-79675000D01*
X117205297Y-79674278D01*
X117190736Y-79672118D01*
X117176457Y-79668541D01*
X117162597Y-79663582D01*
X117149290Y-79657288D01*
X117136664Y-79649720D01*
X117124841Y-79640952D01*
X117113934Y-79631066D01*
X117104048Y-79620159D01*
X117095280Y-79608336D01*
X117087712Y-79595710D01*
X117081418Y-79582403D01*
X117076459Y-79568543D01*
X117072882Y-79554264D01*
X117070722Y-79539703D01*
X117070000Y-79525000D01*
X117070000Y-79225000D01*
X117070722Y-79210297D01*
X117072882Y-79195736D01*
X117076459Y-79181457D01*
X117081418Y-79167597D01*
X117087712Y-79154290D01*
X117095280Y-79141664D01*
X117104048Y-79129841D01*
X117113934Y-79118934D01*
X117124841Y-79109048D01*
X117136664Y-79100280D01*
X117149290Y-79092712D01*
X117162597Y-79086418D01*
X117176457Y-79081459D01*
X117190736Y-79077882D01*
X117205297Y-79075722D01*
X117220000Y-79075000D01*
X118870000Y-79075000D01*
X118884703Y-79075722D01*
X118884703Y-79075722D01*
G37*
D15*
X118045000Y-79375000D03*
D11*
G36*
X118884703Y-80345722D02*
G01*
X118899264Y-80347882D01*
X118913543Y-80351459D01*
X118927403Y-80356418D01*
X118940710Y-80362712D01*
X118953336Y-80370280D01*
X118965159Y-80379048D01*
X118976066Y-80388934D01*
X118985952Y-80399841D01*
X118994720Y-80411664D01*
X119002288Y-80424290D01*
X119008582Y-80437597D01*
X119013541Y-80451457D01*
X119017118Y-80465736D01*
X119019278Y-80480297D01*
X119020000Y-80495000D01*
X119020000Y-80795000D01*
X119019278Y-80809703D01*
X119017118Y-80824264D01*
X119013541Y-80838543D01*
X119008582Y-80852403D01*
X119002288Y-80865710D01*
X118994720Y-80878336D01*
X118985952Y-80890159D01*
X118976066Y-80901066D01*
X118965159Y-80910952D01*
X118953336Y-80919720D01*
X118940710Y-80927288D01*
X118927403Y-80933582D01*
X118913543Y-80938541D01*
X118899264Y-80942118D01*
X118884703Y-80944278D01*
X118870000Y-80945000D01*
X117220000Y-80945000D01*
X117205297Y-80944278D01*
X117190736Y-80942118D01*
X117176457Y-80938541D01*
X117162597Y-80933582D01*
X117149290Y-80927288D01*
X117136664Y-80919720D01*
X117124841Y-80910952D01*
X117113934Y-80901066D01*
X117104048Y-80890159D01*
X117095280Y-80878336D01*
X117087712Y-80865710D01*
X117081418Y-80852403D01*
X117076459Y-80838543D01*
X117072882Y-80824264D01*
X117070722Y-80809703D01*
X117070000Y-80795000D01*
X117070000Y-80495000D01*
X117070722Y-80480297D01*
X117072882Y-80465736D01*
X117076459Y-80451457D01*
X117081418Y-80437597D01*
X117087712Y-80424290D01*
X117095280Y-80411664D01*
X117104048Y-80399841D01*
X117113934Y-80388934D01*
X117124841Y-80379048D01*
X117136664Y-80370280D01*
X117149290Y-80362712D01*
X117162597Y-80356418D01*
X117176457Y-80351459D01*
X117190736Y-80347882D01*
X117205297Y-80345722D01*
X117220000Y-80345000D01*
X118870000Y-80345000D01*
X118884703Y-80345722D01*
X118884703Y-80345722D01*
G37*
D15*
X118045000Y-80645000D03*
D11*
G36*
X118884703Y-81615722D02*
G01*
X118899264Y-81617882D01*
X118913543Y-81621459D01*
X118927403Y-81626418D01*
X118940710Y-81632712D01*
X118953336Y-81640280D01*
X118965159Y-81649048D01*
X118976066Y-81658934D01*
X118985952Y-81669841D01*
X118994720Y-81681664D01*
X119002288Y-81694290D01*
X119008582Y-81707597D01*
X119013541Y-81721457D01*
X119017118Y-81735736D01*
X119019278Y-81750297D01*
X119020000Y-81765000D01*
X119020000Y-82065000D01*
X119019278Y-82079703D01*
X119017118Y-82094264D01*
X119013541Y-82108543D01*
X119008582Y-82122403D01*
X119002288Y-82135710D01*
X118994720Y-82148336D01*
X118985952Y-82160159D01*
X118976066Y-82171066D01*
X118965159Y-82180952D01*
X118953336Y-82189720D01*
X118940710Y-82197288D01*
X118927403Y-82203582D01*
X118913543Y-82208541D01*
X118899264Y-82212118D01*
X118884703Y-82214278D01*
X118870000Y-82215000D01*
X117220000Y-82215000D01*
X117205297Y-82214278D01*
X117190736Y-82212118D01*
X117176457Y-82208541D01*
X117162597Y-82203582D01*
X117149290Y-82197288D01*
X117136664Y-82189720D01*
X117124841Y-82180952D01*
X117113934Y-82171066D01*
X117104048Y-82160159D01*
X117095280Y-82148336D01*
X117087712Y-82135710D01*
X117081418Y-82122403D01*
X117076459Y-82108543D01*
X117072882Y-82094264D01*
X117070722Y-82079703D01*
X117070000Y-82065000D01*
X117070000Y-81765000D01*
X117070722Y-81750297D01*
X117072882Y-81735736D01*
X117076459Y-81721457D01*
X117081418Y-81707597D01*
X117087712Y-81694290D01*
X117095280Y-81681664D01*
X117104048Y-81669841D01*
X117113934Y-81658934D01*
X117124841Y-81649048D01*
X117136664Y-81640280D01*
X117149290Y-81632712D01*
X117162597Y-81626418D01*
X117176457Y-81621459D01*
X117190736Y-81617882D01*
X117205297Y-81615722D01*
X117220000Y-81615000D01*
X118870000Y-81615000D01*
X118884703Y-81615722D01*
X118884703Y-81615722D01*
G37*
D15*
X118045000Y-81915000D03*
D11*
G36*
X118884703Y-82885722D02*
G01*
X118899264Y-82887882D01*
X118913543Y-82891459D01*
X118927403Y-82896418D01*
X118940710Y-82902712D01*
X118953336Y-82910280D01*
X118965159Y-82919048D01*
X118976066Y-82928934D01*
X118985952Y-82939841D01*
X118994720Y-82951664D01*
X119002288Y-82964290D01*
X119008582Y-82977597D01*
X119013541Y-82991457D01*
X119017118Y-83005736D01*
X119019278Y-83020297D01*
X119020000Y-83035000D01*
X119020000Y-83335000D01*
X119019278Y-83349703D01*
X119017118Y-83364264D01*
X119013541Y-83378543D01*
X119008582Y-83392403D01*
X119002288Y-83405710D01*
X118994720Y-83418336D01*
X118985952Y-83430159D01*
X118976066Y-83441066D01*
X118965159Y-83450952D01*
X118953336Y-83459720D01*
X118940710Y-83467288D01*
X118927403Y-83473582D01*
X118913543Y-83478541D01*
X118899264Y-83482118D01*
X118884703Y-83484278D01*
X118870000Y-83485000D01*
X117220000Y-83485000D01*
X117205297Y-83484278D01*
X117190736Y-83482118D01*
X117176457Y-83478541D01*
X117162597Y-83473582D01*
X117149290Y-83467288D01*
X117136664Y-83459720D01*
X117124841Y-83450952D01*
X117113934Y-83441066D01*
X117104048Y-83430159D01*
X117095280Y-83418336D01*
X117087712Y-83405710D01*
X117081418Y-83392403D01*
X117076459Y-83378543D01*
X117072882Y-83364264D01*
X117070722Y-83349703D01*
X117070000Y-83335000D01*
X117070000Y-83035000D01*
X117070722Y-83020297D01*
X117072882Y-83005736D01*
X117076459Y-82991457D01*
X117081418Y-82977597D01*
X117087712Y-82964290D01*
X117095280Y-82951664D01*
X117104048Y-82939841D01*
X117113934Y-82928934D01*
X117124841Y-82919048D01*
X117136664Y-82910280D01*
X117149290Y-82902712D01*
X117162597Y-82896418D01*
X117176457Y-82891459D01*
X117190736Y-82887882D01*
X117205297Y-82885722D01*
X117220000Y-82885000D01*
X118870000Y-82885000D01*
X118884703Y-82885722D01*
X118884703Y-82885722D01*
G37*
D15*
X118045000Y-83185000D03*
D16*
X109220000Y-83800000D03*
X109220000Y-81300000D03*
M02*
