EESchema Schematic File Version 4
LIBS:ArduDishMegaShield-cache
EELAYER 30 0
EELAYER END
$Descr A3 16535 11693
encoding utf-8
Sheet 1 1
Title "ArduDish MEGA Shield"
Date "2019-10-11"
Rev "Rev A"
Comp "Gallworks -MI2"
Comment1 ""
Comment2 ""
Comment3 ""
Comment4 ""
$EndDescr
$Comp
L Arduino_Mega:ARDUINO_MEGA2560_REV3_-_RETAIL A1
U 1 1 5D850D76
P 13700 3450
F 0 "A1" H 13700 5917 50  0000 C CNN
F 1 "ARDUINO_MEGA2560_REV3_-_RETAIL" H 13700 5826 50  0000 C CNN
F 2 "Arduino_Mega:ARDUINO_MEGA2560_REV3_-_RETAIL" H 13700 3450 50  0001 L BNN
F 3 "" H 13700 3450 50  0001 L BNN
F 4 "None" H 13700 3450 50  0001 L BNN "Field5"
F 5 "Arduino" H 13700 3450 50  0001 L BNN "Field6"
F 6 "ARDUINO MEGA2560 REV3 - RETAIL" H 13700 3450 50  0001 L BNN "Field7"
F 7 "Dev.kit: Arduino; SPI, TWI, UART; ICSP, USB B, pin strips, supply" H 13700 3450 50  0001 L BNN "Field8"
	1    13700 3450
	1    0    0    -1  
$EndComp
$Comp
L Connector:Conn_01x02_Male J1
U 1 1 5D85D17F
P 1750 1650
F 0 "J1" H 1858 1831 50  0000 C CNN
F 1 "Conn_01x02_Male" H 1858 1740 50  0000 C CNN
F 2 "Connector_JST:JST_PH_S2B-PH-K_1x02_P2.00mm_Horizontal" H 1750 1650 50  0001 C CNN
F 3 "~" H 1750 1650 50  0001 C CNN
	1    1750 1650
	1    0    0    -1  
$EndComp
$Comp
L power:GND #PWR030
U 1 1 5D85F90A
P 12600 1950
F 0 "#PWR030" H 12600 1700 50  0001 C CNN
F 1 "GND" V 12605 1822 50  0000 R CNN
F 2 "" H 12600 1950 50  0001 C CNN
F 3 "" H 12600 1950 50  0001 C CNN
	1    12600 1950
	0    1    1    0   
$EndComp
Wire Wire Line
	12600 1950 12750 1950
Wire Wire Line
	12900 2050 12750 2050
Wire Wire Line
	12750 2050 12750 1950
Connection ~ 12750 1950
Wire Wire Line
	12750 1950 12900 1950
$Comp
L Connector:Conn_01x10_Male J4
U 1 1 5D8615D6
P 11300 8050
F 0 "J4" H 11408 8631 50  0000 C CNN
F 1 "Conn_01x10_Male" H 11408 8540 50  0000 C CNN
F 2 "Connector_JST:JST_XH_B10B-XH-A_1x10_P2.50mm_Vertical" H 11300 8050 50  0001 C CNN
F 3 "~" H 11300 8050 50  0001 C CNN
	1    11300 8050
	1    0    0    -1  
$EndComp
Text Notes 11800 8950 0    50   ~ 0
Relay Shield Connector\n
Text Notes 14150 8550 0    50   ~ 0
Temperature Sensor Connector
Text Notes 9400 8900 0    50   ~ 0
Overflow Sensor Connector
Text Notes 6550 10400 0    50   ~ 0
SD Card
$Comp
L Connector:Conn_01x02_Male J2
U 1 1 5D86410D
P 13600 7650
F 0 "J2" H 13708 7831 50  0000 C CNN
F 1 "Conn_01x02_Male" H 13708 7740 50  0000 C CNN
F 2 "Connector_JST:JST_PH_B2B-PH-K_1x02_P2.00mm_Vertical" H 13600 7650 50  0001 C CNN
F 3 "~" H 13600 7650 50  0001 C CNN
	1    13600 7650
	1    0    0    -1  
$EndComp
$Comp
L Connector:Conn_01x02_Male J6
U 1 1 5D86467E
P 9350 8250
F 0 "J6" H 9458 8431 50  0000 C CNN
F 1 "Conn_01x02_Male" H 9458 8340 50  0000 C CNN
F 2 "Connector_JST:JST_PH_B2B-PH-K_1x02_P2.00mm_Vertical" H 9350 8250 50  0001 C CNN
F 3 "~" H 9350 8250 50  0001 C CNN
	1    9350 8250
	1    0    0    -1  
$EndComp
$Comp
L Connector:Micro_SD_Card J3
U 1 1 5D864E7C
P 3900 9500
F 0 "J3" H 3850 10217 50  0000 C CNN
F 1 "Micro_SD_Card" H 3850 10126 50  0000 C CNN
F 2 "Connector_Card:microSD_HC_Wuerth_693072010801" H 5050 9800 50  0001 C CNN
F 3 "http://katalog.we-online.de/em/datasheet/693072010801.pdf" H 3900 9500 50  0001 C CNN
	1    3900 9500
	1    0    0    -1  
$EndComp
$Comp
L Memory_EEPROM:AT24CS16-SSHM U2
U 1 1 5D86854F
P 7650 1450
F 0 "U2" H 7320 1496 50  0000 R CNN
F 1 "AT24CS16-SSHM" H 7320 1405 50  0000 R CNN
F 2 "Package_SO:SOIC-8_3.9x4.9mm_P1.27mm" H 7650 1450 50  0001 C CNN
F 3 "http://ww1.microchip.com/downloads/en/DeviceDoc/Atmel-8859-SEEPROM-AT24CS16-Datasheet.pdf" H 7650 1450 50  0001 C CNN
	1    7650 1450
	1    0    0    -1  
$EndComp
Text Notes 8100 2250 0    50   ~ 0
RunTime Log Memory
$Comp
L power:+5V #PWR017
U 1 1 5D86A56F
P 11850 7350
F 0 "#PWR017" H 11850 7200 50  0001 C CNN
F 1 "+5V" H 11865 7523 50  0000 C CNN
F 2 "" H 11850 7350 50  0001 C CNN
F 3 "" H 11850 7350 50  0001 C CNN
	1    11850 7350
	1    0    0    -1  
$EndComp
$Comp
L power:GND #PWR018
U 1 1 5D86B302
P 11850 8650
F 0 "#PWR018" H 11850 8400 50  0001 C CNN
F 1 "GND" H 11855 8477 50  0000 C CNN
F 2 "" H 11850 8650 50  0001 C CNN
F 3 "" H 11850 8650 50  0001 C CNN
	1    11850 8650
	1    0    0    -1  
$EndComp
Wire Wire Line
	11500 7650 11850 7650
Wire Wire Line
	11500 8550 11850 8550
Wire Wire Line
	11850 8550 11850 8650
Wire Wire Line
	11500 7750 11850 7750
Text Label 11850 7750 0    50   ~ 0
Relay_Ch1
Text Label 11850 7850 0    50   ~ 0
Relay_Ch2
Text Label 11850 7950 0    50   ~ 0
Relay_Ch3
Text Label 11850 8050 0    50   ~ 0
Relay_Ch4
Text Label 11850 8150 0    50   ~ 0
Relay_Ch5
Text Label 11850 8250 0    50   ~ 0
Relay_Ch6
Text Label 11850 8350 0    50   ~ 0
Relay_Ch7
Text Label 11850 8450 0    50   ~ 0
Relay_Ch8
Wire Wire Line
	11500 8450 11850 8450
Wire Wire Line
	11850 8350 11500 8350
Wire Wire Line
	11500 8250 11850 8250
Wire Wire Line
	11500 8150 11850 8150
Wire Wire Line
	11500 8050 11850 8050
Wire Wire Line
	11500 7950 11850 7950
Wire Wire Line
	11500 7850 11850 7850
$Comp
L Device:R R2
U 1 1 5D8733FE
P 14500 7950
F 0 "R2" H 14570 7996 50  0000 L CNN
F 1 "15K" H 14570 7905 50  0000 L CNN
F 2 "Resistor_SMD:R_0603_1608Metric_Pad1.05x0.95mm_HandSolder" V 14430 7950 50  0001 C CNN
F 3 "~" H 14500 7950 50  0001 C CNN
	1    14500 7950
	1    0    0    -1  
$EndComp
$Comp
L power:GND #PWR08
U 1 1 5D87568F
P 14500 8200
F 0 "#PWR08" H 14500 7950 50  0001 C CNN
F 1 "GND" H 14505 8027 50  0000 C CNN
F 2 "" H 14500 8200 50  0001 C CNN
F 3 "" H 14500 8200 50  0001 C CNN
	1    14500 8200
	1    0    0    -1  
$EndComp
$Comp
L power:+5V #PWR07
U 1 1 5D875A7E
P 14300 7500
F 0 "#PWR07" H 14300 7350 50  0001 C CNN
F 1 "+5V" H 14315 7673 50  0000 C CNN
F 2 "" H 14300 7500 50  0001 C CNN
F 3 "" H 14300 7500 50  0001 C CNN
	1    14300 7500
	1    0    0    -1  
$EndComp
Wire Wire Line
	14300 7650 14300 7500
Text Label 14800 7750 0    50   ~ 0
Temp1
$Comp
L Connector:Conn_01x02_Male J5
U 1 1 5D87B172
P 9300 7300
F 0 "J5" H 9408 7481 50  0000 C CNN
F 1 "Conn_01x02_Male" H 9408 7390 50  0000 C CNN
F 2 "Connector_JST:JST_PH_B2B-PH-K_1x02_P2.00mm_Vertical" H 9300 7300 50  0001 C CNN
F 3 "~" H 9300 7300 50  0001 C CNN
	1    9300 7300
	1    0    0    -1  
$EndComp
Text Notes 9550 7900 0    50   ~ 0
Flow Meter Connector
Wire Wire Line
	14500 4250 14650 4250
Text Label 14650 4250 0    50   ~ 0
Relay_Ch1
Text Label 14650 4350 0    50   ~ 0
Relay_Ch2
Text Label 14650 4550 0    50   ~ 0
Relay_Ch3
Text Label 14650 4650 0    50   ~ 0
Relay_Ch4
Text Label 14650 4750 0    50   ~ 0
Relay_Ch5
Text Label 14650 4850 0    50   ~ 0
Relay_Ch6
Text Label 14650 4950 0    50   ~ 0
Relay_Ch7
Text Label 14650 5050 0    50   ~ 0
Relay_Ch8
Wire Wire Line
	14500 4350 14650 4350
Wire Wire Line
	14500 4550 14650 4550
Wire Wire Line
	14500 4650 14650 4650
Wire Wire Line
	14500 4750 14650 4750
Wire Wire Line
	14500 4850 14650 4850
Wire Wire Line
	14500 4950 14650 4950
Wire Wire Line
	14500 5050 14650 5050
Text Label 12450 3250 0    50   ~ 0
Temp1
Text Label 12450 3350 0    50   ~ 0
Overflow
Text Label 12450 3450 0    50   ~ 0
FlowMeter
Wire Wire Line
	12450 3250 12900 3250
Wire Wire Line
	12450 3350 12900 3350
Wire Wire Line
	12450 3450 12900 3450
Text Label 14650 1250 0    50   ~ 0
SCL
Text Label 14650 1350 0    50   ~ 0
SDA
Wire Wire Line
	14500 1250 14650 1250
Wire Wire Line
	14500 1350 14650 1350
Text Label 8650 1350 0    50   ~ 0
SDA
Text Label 8650 1450 0    50   ~ 0
SCL
Text Label 8450 1550 0    50   ~ 0
EEPROM_WP
$Comp
L power:GND #PWR022
U 1 1 5D88E0A5
P 7650 1850
F 0 "#PWR022" H 7650 1600 50  0001 C CNN
F 1 "GND" H 7655 1677 50  0000 C CNN
F 2 "" H 7650 1850 50  0001 C CNN
F 3 "" H 7650 1850 50  0001 C CNN
	1    7650 1850
	1    0    0    -1  
$EndComp
Wire Wire Line
	7650 1750 7650 1850
$Comp
L power:+5V #PWR021
U 1 1 5D88F852
P 7650 1000
F 0 "#PWR021" H 7650 850 50  0001 C CNN
F 1 "+5V" H 7665 1173 50  0000 C CNN
F 2 "" H 7650 1000 50  0001 C CNN
F 3 "" H 7650 1000 50  0001 C CNN
	1    7650 1000
	1    0    0    -1  
$EndComp
Wire Wire Line
	7650 1000 7650 1050
Text Label 10050 7300 0    50   ~ 0
FlowMeter
$Comp
L power:GND #PWR023
U 1 1 5D894E3B
P 9750 7600
F 0 "#PWR023" H 9750 7350 50  0001 C CNN
F 1 "GND" H 9755 7427 50  0000 C CNN
F 2 "" H 9750 7600 50  0001 C CNN
F 3 "" H 9750 7600 50  0001 C CNN
	1    9750 7600
	1    0    0    -1  
$EndComp
Wire Wire Line
	9500 7400 9750 7400
Wire Wire Line
	9550 8350 9750 8350
$Comp
L power:GND #PWR024
U 1 1 5D89D3A0
P 9750 8550
F 0 "#PWR024" H 9750 8300 50  0001 C CNN
F 1 "GND" H 9755 8377 50  0000 C CNN
F 2 "" H 9750 8550 50  0001 C CNN
F 3 "" H 9750 8550 50  0001 C CNN
	1    9750 8550
	1    0    0    -1  
$EndComp
Text Label 10100 8250 0    50   ~ 0
Overflow
$Comp
L Device:R R12
U 1 1 5D8A530F
P 8150 1100
F 0 "R12" H 8220 1146 50  0000 L CNN
F 1 "10K" H 8220 1055 50  0000 L CNN
F 2 "Resistor_SMD:R_0603_1608Metric_Pad1.05x0.95mm_HandSolder" V 8080 1100 50  0001 C CNN
F 3 "~" H 8150 1100 50  0001 C CNN
	1    8150 1100
	1    0    0    -1  
$EndComp
$Comp
L Device:R R14
U 1 1 5D8A5DB9
P 8450 1100
F 0 "R14" H 8520 1146 50  0000 L CNN
F 1 "10K" H 8520 1055 50  0000 L CNN
F 2 "Resistor_SMD:R_0603_1608Metric_Pad1.05x0.95mm_HandSolder" V 8380 1100 50  0001 C CNN
F 3 "~" H 8450 1100 50  0001 C CNN
	1    8450 1100
	1    0    0    -1  
$EndComp
Wire Wire Line
	8050 1350 8150 1350
Wire Wire Line
	8050 1450 8450 1450
Wire Wire Line
	8150 1350 8150 1250
Connection ~ 8150 1350
Wire Wire Line
	8150 1350 8650 1350
Wire Wire Line
	8450 1450 8450 1250
Connection ~ 8450 1450
Wire Wire Line
	8450 1450 8650 1450
Wire Wire Line
	8150 950  8450 950 
$Comp
L power:+5V #PWR026
U 1 1 5D8AD0A3
P 8450 850
F 0 "#PWR026" H 8450 700 50  0001 C CNN
F 1 "+5V" H 8465 1023 50  0000 C CNN
F 2 "" H 8450 850 50  0001 C CNN
F 3 "" H 8450 850 50  0001 C CNN
	1    8450 850 
	1    0    0    -1  
$EndComp
Wire Wire Line
	8450 850  8450 950 
Connection ~ 8450 950 
Wire Wire Line
	8050 1550 8300 1550
$Comp
L Device:R R13
U 1 1 5D8B1D94
P 8300 1750
F 0 "R13" H 8370 1796 50  0000 L CNN
F 1 "10K" H 8370 1705 50  0000 L CNN
F 2 "Resistor_SMD:R_0603_1608Metric_Pad1.05x0.95mm_HandSolder" V 8230 1750 50  0001 C CNN
F 3 "~" H 8300 1750 50  0001 C CNN
	1    8300 1750
	1    0    0    -1  
$EndComp
$Comp
L power:GND #PWR025
U 1 1 5D8B22C9
P 8300 1950
F 0 "#PWR025" H 8300 1700 50  0001 C CNN
F 1 "GND" H 8305 1777 50  0000 C CNN
F 2 "" H 8300 1950 50  0001 C CNN
F 3 "" H 8300 1950 50  0001 C CNN
	1    8300 1950
	1    0    0    -1  
$EndComp
Wire Wire Line
	8300 1950 8300 1900
Wire Wire Line
	8300 1600 8300 1550
Connection ~ 8300 1550
Wire Wire Line
	8300 1550 8450 1550
$Comp
L Regulator_Linear:LM1085-5.0 U1
U 1 1 5D8CAC79
P 2550 2650
F 0 "U1" H 2550 2892 50  0000 C CNN
F 1 "LM1085-5.0" H 2550 2801 50  0000 C CNN
F 2 "Package_TO_SOT_SMD:TO-263-3_TabPin2" H 2550 2900 50  0001 C CIN
F 3 "http://www.ti.com/lit/ds/symlink/lm1085.pdf" H 2550 2650 50  0001 C CNN
	1    2550 2650
	1    0    0    -1  
$EndComp
$Comp
L Device:C C2
U 1 1 5D8CB713
P 1800 2800
F 0 "C2" H 1915 2846 50  0000 L CNN
F 1 "10uF" H 1915 2755 50  0000 L CNN
F 2 "Capacitor_SMD:C_1206_3216Metric_Pad1.42x1.75mm_HandSolder" H 1838 2650 50  0001 C CNN
F 3 "~" H 1800 2800 50  0001 C CNN
	1    1800 2800
	1    0    0    -1  
$EndComp
$Comp
L Device:C C3
U 1 1 5D8CBD78
P 3300 2800
F 0 "C3" H 3415 2846 50  0000 L CNN
F 1 "10uF" H 3415 2755 50  0000 L CNN
F 2 "Capacitor_SMD:C_1206_3216Metric_Pad1.42x1.75mm_HandSolder" H 3338 2650 50  0001 C CNN
F 3 "~" H 3300 2800 50  0001 C CNN
	1    3300 2800
	1    0    0    -1  
$EndComp
Wire Wire Line
	2850 2650 3300 2650
Wire Wire Line
	3300 2650 3650 2650
Connection ~ 3300 2650
$Comp
L power:+5V #PWR010
U 1 1 5D8CFA39
P 3650 2650
F 0 "#PWR010" H 3650 2500 50  0001 C CNN
F 1 "+5V" V 3665 2778 50  0000 L CNN
F 2 "" H 3650 2650 50  0001 C CNN
F 3 "" H 3650 2650 50  0001 C CNN
	1    3650 2650
	0    1    1    0   
$EndComp
Wire Wire Line
	1450 2650 1800 2650
Connection ~ 1800 2650
Wire Wire Line
	1800 2650 2250 2650
$Comp
L power:+9V #PWR01
U 1 1 5D8D1D4A
P 1450 2650
F 0 "#PWR01" H 1450 2500 50  0001 C CNN
F 1 "+9V" V 1465 2778 50  0000 L CNN
F 2 "" H 1450 2650 50  0001 C CNN
F 3 "" H 1450 2650 50  0001 C CNN
	1    1450 2650
	0    -1   -1   0   
$EndComp
Wire Wire Line
	1800 2950 1800 3100
Wire Wire Line
	1800 3100 2550 3100
Wire Wire Line
	3300 3100 3300 2950
Wire Wire Line
	2550 2950 2550 3100
Connection ~ 2550 3100
Wire Wire Line
	2550 3100 3300 3100
$Comp
L power:GND #PWR06
U 1 1 5D8D6760
P 2550 3200
F 0 "#PWR06" H 2550 2950 50  0001 C CNN
F 1 "GND" H 2555 3027 50  0000 C CNN
F 2 "" H 2550 3200 50  0001 C CNN
F 3 "" H 2550 3200 50  0001 C CNN
	1    2550 3200
	1    0    0    -1  
$EndComp
Wire Wire Line
	2550 3200 2550 3100
Text Notes 3150 3350 0    50   ~ 0
External 5V Regulator
$Comp
L Device:C C5
U 1 1 5D90132A
P 7500 1050
F 0 "C5" V 7248 1050 50  0000 C CNN
F 1 "10uF" V 7339 1050 50  0000 C CNN
F 2 "Capacitor_SMD:C_1206_3216Metric_Pad1.42x1.75mm_HandSolder" H 7538 900 50  0001 C CNN
F 3 "~" H 7500 1050 50  0001 C CNN
	1    7500 1050
	0    1    1    0   
$EndComp
Connection ~ 7650 1050
Wire Wire Line
	7650 1050 7650 1150
$Comp
L power:GND #PWR020
U 1 1 5D901D42
P 7200 1050
F 0 "#PWR020" H 7200 800 50  0001 C CNN
F 1 "GND" V 7205 922 50  0000 R CNN
F 2 "" H 7200 1050 50  0001 C CNN
F 3 "" H 7200 1050 50  0001 C CNN
	1    7200 1050
	0    1    1    0   
$EndComp
Wire Wire Line
	7200 1050 7350 1050
$Comp
L power:+3V3 #PWR02
U 1 1 5D90B0D8
P 1800 8700
F 0 "#PWR02" H 1800 8550 50  0001 C CNN
F 1 "+3V3" H 1815 8873 50  0000 C CNN
F 2 "" H 1800 8700 50  0001 C CNN
F 3 "" H 1800 8700 50  0001 C CNN
	1    1800 8700
	1    0    0    -1  
$EndComp
Text Label 1850 9800 0    50   ~ 0
MISO
Text Label 1850 9600 0    50   ~ 0
CLK
Text Label 1850 9400 0    50   ~ 0
MOSI
Text Label 1850 9300 0    50   ~ 0
CS
$Comp
L power:GND #PWR03
U 1 1 5D90CA3C
P 1800 10000
F 0 "#PWR03" H 1800 9750 50  0001 C CNN
F 1 "GND" H 1805 9827 50  0000 C CNN
F 2 "" H 1800 10000 50  0001 C CNN
F 3 "" H 1800 10000 50  0001 C CNN
	1    1800 10000
	1    0    0    -1  
$EndComp
Wire Wire Line
	1800 9700 1800 9900
Wire Wire Line
	3000 9900 2600 9900
Wire Wire Line
	2600 9900 2600 10050
$Comp
L Device:R R3
U 1 1 5D925A07
P 2600 10200
F 0 "R3" H 2670 10246 50  0000 L CNN
F 1 "10K" H 2670 10155 50  0000 L CNN
F 2 "Resistor_SMD:R_0603_1608Metric_Pad1.05x0.95mm_HandSolder" V 2530 10200 50  0001 C CNN
F 3 "~" H 2600 10200 50  0001 C CNN
	1    2600 10200
	1    0    0    -1  
$EndComp
$Comp
L power:GND #PWR09
U 1 1 5D925F52
P 2600 10400
F 0 "#PWR09" H 2600 10150 50  0001 C CNN
F 1 "GND" H 2605 10227 50  0000 C CNN
F 2 "" H 2600 10400 50  0001 C CNN
F 3 "" H 2600 10400 50  0001 C CNN
	1    2600 10400
	1    0    0    -1  
$EndComp
Wire Wire Line
	2600 10400 2600 10350
Wire Wire Line
	1850 9800 2200 9800
Wire Wire Line
	1800 9700 3000 9700
Wire Wire Line
	1800 9500 3000 9500
Wire Wire Line
	1850 9600 3000 9600
Wire Wire Line
	1850 9400 3000 9400
Wire Wire Line
	1850 9300 3000 9300
Wire Wire Line
	2200 9800 2200 9100
Connection ~ 2200 9800
Wire Wire Line
	2200 9800 3000 9800
$Comp
L Device:R R1
U 1 1 5D94D124
P 2200 8950
F 0 "R1" H 2270 8996 50  0000 L CNN
F 1 "10K" H 2270 8905 50  0000 L CNN
F 2 "Resistor_SMD:R_0603_1608Metric_Pad1.05x0.95mm_HandSolder" V 2130 8950 50  0001 C CNN
F 3 "~" H 2200 8950 50  0001 C CNN
	1    2200 8950
	1    0    0    -1  
$EndComp
Wire Wire Line
	1800 8700 1800 8800
Wire Wire Line
	2200 8800 1800 8800
Connection ~ 1800 8800
$Comp
L Device:C C1
U 1 1 5D956C6D
P 1550 9550
F 0 "C1" H 1665 9596 50  0000 L CNN
F 1 "10uF" H 1665 9505 50  0000 L CNN
F 2 "Capacitor_SMD:C_1206_3216Metric_Pad1.42x1.75mm_HandSolder" H 1588 9400 50  0001 C CNN
F 3 "~" H 1550 9550 50  0001 C CNN
	1    1550 9550
	1    0    0    -1  
$EndComp
Wire Wire Line
	1550 9400 1550 9200
Wire Wire Line
	1550 9200 1800 9200
Wire Wire Line
	1800 8800 1800 9200
Connection ~ 1800 9200
Wire Wire Line
	1800 9200 1800 9500
Wire Wire Line
	1550 9700 1550 9900
Wire Wire Line
	1550 9900 1800 9900
Connection ~ 1800 9900
Wire Wire Line
	1800 9900 1800 10000
$Comp
L Device:C C7
U 1 1 5D96BEE4
P 9950 8400
F 0 "C7" H 10065 8446 50  0000 L CNN
F 1 "10nF" H 10065 8355 50  0000 L CNN
F 2 "Capacitor_SMD:C_1206_3216Metric_Pad1.42x1.75mm_HandSolder" H 9988 8250 50  0001 C CNN
F 3 "~" H 9950 8400 50  0001 C CNN
	1    9950 8400
	1    0    0    -1  
$EndComp
Wire Wire Line
	9550 8250 9950 8250
Connection ~ 9950 8250
Wire Wire Line
	9950 8250 10100 8250
Wire Wire Line
	9750 8350 9750 8550
Wire Wire Line
	9950 8550 9750 8550
Connection ~ 9750 8550
$Comp
L Device:C C6
U 1 1 5D9890AD
P 9900 7450
F 0 "C6" H 10015 7496 50  0000 L CNN
F 1 "10nF" H 10015 7405 50  0000 L CNN
F 2 "Capacitor_SMD:C_1206_3216Metric_Pad1.42x1.75mm_HandSolder" H 9938 7300 50  0001 C CNN
F 3 "~" H 9900 7450 50  0001 C CNN
	1    9900 7450
	1    0    0    -1  
$EndComp
Wire Wire Line
	9500 7300 9900 7300
Connection ~ 9900 7300
Wire Wire Line
	9750 7400 9750 7600
Wire Wire Line
	9750 7600 9900 7600
Connection ~ 9750 7600
Wire Wire Line
	9900 7300 10050 7300
Text Label 12550 5750 0    50   ~ 0
CS-5V
Text Label 12550 5650 0    50   ~ 0
MOSI-5V
Text Label 14650 5750 0    50   ~ 0
CLK-5V
Text Label 14650 5650 0    50   ~ 0
MISO-5V
Wire Wire Line
	14650 5650 14500 5650
Wire Wire Line
	14500 5750 14650 5750
$Comp
L power:GND #PWR012
U 1 1 5D905431
P 4900 10250
F 0 "#PWR012" H 4900 10000 50  0001 C CNN
F 1 "GND" H 4905 10077 50  0000 C CNN
F 2 "" H 4900 10250 50  0001 C CNN
F 3 "" H 4900 10250 50  0001 C CNN
	1    4900 10250
	1    0    0    -1  
$EndComp
Wire Wire Line
	4700 10100 4900 10100
Wire Wire Line
	4900 10100 4900 10250
$Comp
L Device:C C4
U 1 1 5D910535
P 12100 7400
F 0 "C4" V 11848 7400 50  0000 C CNN
F 1 "10uF" V 11939 7400 50  0000 C CNN
F 2 "Capacitor_SMD:C_1206_3216Metric_Pad1.42x1.75mm_HandSolder" H 12138 7250 50  0001 C CNN
F 3 "~" H 12100 7400 50  0001 C CNN
	1    12100 7400
	0    1    1    0   
$EndComp
$Comp
L power:GND #PWR019
U 1 1 5D910DBB
P 12350 7450
F 0 "#PWR019" H 12350 7200 50  0001 C CNN
F 1 "GND" V 12355 7322 50  0000 R CNN
F 2 "" H 12350 7450 50  0001 C CNN
F 3 "" H 12350 7450 50  0001 C CNN
	1    12350 7450
	1    0    0    -1  
$EndComp
Wire Wire Line
	12350 7450 12350 7400
Wire Wire Line
	12250 7400 12350 7400
Wire Wire Line
	11950 7400 11850 7400
Wire Wire Line
	11850 7350 11850 7400
Connection ~ 11850 7400
Wire Wire Line
	11850 7400 11850 7650
Text Notes 3150 3450 0    50   ~ 0
*Heat Sink on PCB
$Comp
L power:GND #PWR032
U 1 1 5D939828
P 14600 5900
F 0 "#PWR032" H 14600 5650 50  0001 C CNN
F 1 "GND" H 14605 5727 50  0000 C CNN
F 2 "" H 14600 5900 50  0001 C CNN
F 3 "" H 14600 5900 50  0001 C CNN
	1    14600 5900
	1    0    0    -1  
$EndComp
Wire Wire Line
	14500 5850 14600 5850
Wire Wire Line
	14600 5850 14600 5900
$Comp
L power:GND #PWR031
U 1 1 5D93EB34
P 12750 5950
F 0 "#PWR031" H 12750 5700 50  0001 C CNN
F 1 "GND" H 12755 5777 50  0000 C CNN
F 2 "" H 12750 5950 50  0001 C CNN
F 3 "" H 12750 5950 50  0001 C CNN
	1    12750 5950
	1    0    0    -1  
$EndComp
Wire Wire Line
	12750 5950 12750 5850
Wire Wire Line
	12750 5850 12900 5850
$Comp
L power:GND #PWR033
U 1 1 5D943F36
P 14850 1650
F 0 "#PWR033" H 14850 1400 50  0001 C CNN
F 1 "GND" H 14855 1477 50  0000 C CNN
F 2 "" H 14850 1650 50  0001 C CNN
F 3 "" H 14850 1650 50  0001 C CNN
	1    14850 1650
	1    0    0    -1  
$EndComp
Wire Wire Line
	14500 1550 14850 1550
Wire Wire Line
	14850 1550 14850 1650
$Comp
L power:GND #PWR05
U 1 1 5D9C4A97
P 2150 1850
F 0 "#PWR05" H 2150 1600 50  0001 C CNN
F 1 "GND" H 2155 1677 50  0000 C CNN
F 2 "" H 2150 1850 50  0001 C CNN
F 3 "" H 2150 1850 50  0001 C CNN
	1    2150 1850
	1    0    0    -1  
$EndComp
$Comp
L power:+9V #PWR04
U 1 1 5D9C505C
P 2950 1450
F 0 "#PWR04" H 2950 1300 50  0001 C CNN
F 1 "+9V" H 2965 1623 50  0000 C CNN
F 2 "" H 2950 1450 50  0001 C CNN
F 3 "" H 2950 1450 50  0001 C CNN
	1    2950 1450
	1    0    0    -1  
$EndComp
Wire Wire Line
	1950 1650 2150 1650
Wire Wire Line
	1950 1750 2150 1750
Wire Wire Line
	2150 1750 2150 1850
$Comp
L power:+3V3 #PWR029
U 1 1 5DA203D2
P 12250 1750
F 0 "#PWR029" H 12250 1600 50  0001 C CNN
F 1 "+3V3" V 12265 1878 50  0000 L CNN
F 2 "" H 12250 1750 50  0001 C CNN
F 3 "" H 12250 1750 50  0001 C CNN
	1    12250 1750
	0    -1   -1   0   
$EndComp
$Comp
L Transistor_FET:BSS138 Q1
U 1 1 5DA1AC1A
P 6200 7150
F 0 "Q1" V 6451 7150 50  0000 C CNN
F 1 "BSS138" V 6542 7150 50  0000 C CNN
F 2 "Package_TO_SOT_SMD:SOT-23" H 6400 7075 50  0001 L CIN
F 3 "https://www.fairchildsemi.com/datasheets/BS/BSS138.pdf" H 6200 7150 50  0001 L CNN
	1    6200 7150
	0    1    1    0   
$EndComp
$Comp
L Device:R R4
U 1 1 5DA88C78
P 5800 7000
F 0 "R4" H 5870 7046 50  0000 L CNN
F 1 "10K" H 5870 6955 50  0000 L CNN
F 2 "Resistor_SMD:R_1206_3216Metric_Pad1.42x1.75mm_HandSolder" V 5730 7000 50  0001 C CNN
F 3 "~" H 5800 7000 50  0001 C CNN
	1    5800 7000
	1    0    0    -1  
$EndComp
$Comp
L Device:R R11
U 1 1 5DA89440
P 6550 7000
F 0 "R11" H 6620 7046 50  0000 L CNN
F 1 "10K" H 6620 6955 50  0000 L CNN
F 2 "Resistor_SMD:R_1206_3216Metric_Pad1.42x1.75mm_HandSolder" V 6480 7000 50  0001 C CNN
F 3 "~" H 6550 7000 50  0001 C CNN
	1    6550 7000
	1    0    0    -1  
$EndComp
$Comp
L power:+3V3 #PWR011
U 1 1 5DA89C46
P 5800 6750
F 0 "#PWR011" H 5800 6600 50  0001 C CNN
F 1 "+3V3" H 5815 6923 50  0000 C CNN
F 2 "" H 5800 6750 50  0001 C CNN
F 3 "" H 5800 6750 50  0001 C CNN
	1    5800 6750
	1    0    0    -1  
$EndComp
$Comp
L power:+5V #PWR016
U 1 1 5DA8A1B3
P 6550 6750
F 0 "#PWR016" H 6550 6600 50  0001 C CNN
F 1 "+5V" H 6565 6923 50  0000 C CNN
F 2 "" H 6550 6750 50  0001 C CNN
F 3 "" H 6550 6750 50  0001 C CNN
	1    6550 6750
	1    0    0    -1  
$EndComp
Wire Wire Line
	5800 6850 6200 6850
Wire Wire Line
	6200 6850 6200 6950
Wire Wire Line
	5800 7250 5800 7150
Wire Wire Line
	6550 7250 6550 7150
Wire Wire Line
	5800 6750 5800 6850
Connection ~ 5800 6850
Wire Wire Line
	6550 6750 6550 6850
Wire Wire Line
	6550 7250 6700 7250
Wire Wire Line
	5450 7250 5800 7250
Wire Wire Line
	6000 7250 5800 7250
Connection ~ 5800 7250
Wire Wire Line
	6400 7250 6550 7250
Connection ~ 6550 7250
Text Label 5450 7250 0    50   ~ 0
MISO
Text Label 6700 7250 0    50   ~ 0
MISO-5V
$Comp
L Device:R R7
U 1 1 5DAFCBAB
P 6200 7950
F 0 "R7" H 6270 7996 50  0000 L CNN
F 1 "10K" H 6270 7905 50  0000 L CNN
F 2 "Resistor_SMD:R_1206_3216Metric_Pad1.42x1.75mm_HandSolder" V 6130 7950 50  0001 C CNN
F 3 "~" H 6200 7950 50  0001 C CNN
	1    6200 7950
	1    0    0    -1  
$EndComp
$Comp
L Device:R R8
U 1 1 5DAFD63E
P 6200 8250
F 0 "R8" H 6270 8296 50  0000 L CNN
F 1 "20K" H 6270 8205 50  0000 L CNN
F 2 "Resistor_SMD:R_1206_3216Metric_Pad1.42x1.75mm_HandSolder" V 6130 8250 50  0001 C CNN
F 3 "~" H 6200 8250 50  0001 C CNN
	1    6200 8250
	1    0    0    -1  
$EndComp
Wire Wire Line
	6200 8100 6550 8100
Connection ~ 6200 8100
Wire Wire Line
	6200 7800 5850 7800
$Comp
L power:GND #PWR014
U 1 1 5DB184BF
P 6200 8400
F 0 "#PWR014" H 6200 8150 50  0001 C CNN
F 1 "GND" H 6205 8227 50  0000 C CNN
F 2 "" H 6200 8400 50  0001 C CNN
F 3 "" H 6200 8400 50  0001 C CNN
	1    6200 8400
	1    0    0    -1  
$EndComp
Text Label 5850 7800 0    50   ~ 0
MOSI-5V
Text Label 6550 8100 0    50   ~ 0
MOSI
Wire Wire Line
	12550 5650 12900 5650
Wire Wire Line
	12550 5750 12900 5750
$Comp
L Device:R R9
U 1 1 5DB3ED13
P 6200 8900
F 0 "R9" H 6270 8946 50  0000 L CNN
F 1 "10K" H 6270 8855 50  0000 L CNN
F 2 "Resistor_SMD:R_1206_3216Metric_Pad1.42x1.75mm_HandSolder" V 6130 8900 50  0001 C CNN
F 3 "~" H 6200 8900 50  0001 C CNN
	1    6200 8900
	1    0    0    -1  
$EndComp
$Comp
L Device:R R10
U 1 1 5DB3ED1D
P 6200 9200
F 0 "R10" H 6270 9246 50  0000 L CNN
F 1 "20K" H 6270 9155 50  0000 L CNN
F 2 "Resistor_SMD:R_1206_3216Metric_Pad1.42x1.75mm_HandSolder" V 6130 9200 50  0001 C CNN
F 3 "~" H 6200 9200 50  0001 C CNN
	1    6200 9200
	1    0    0    -1  
$EndComp
Wire Wire Line
	6200 9050 6550 9050
Connection ~ 6200 9050
Wire Wire Line
	6200 8750 5850 8750
$Comp
L power:GND #PWR015
U 1 1 5DB3ED2A
P 6200 9350
F 0 "#PWR015" H 6200 9100 50  0001 C CNN
F 1 "GND" H 6205 9177 50  0000 C CNN
F 2 "" H 6200 9350 50  0001 C CNN
F 3 "" H 6200 9350 50  0001 C CNN
	1    6200 9350
	1    0    0    -1  
$EndComp
Text Label 5850 8750 0    50   ~ 0
CLK-5V
Text Label 6550 9050 0    50   ~ 0
CLK
$Comp
L Device:R R5
U 1 1 5DB561F3
P 6150 9800
F 0 "R5" H 6220 9846 50  0000 L CNN
F 1 "10K" H 6220 9755 50  0000 L CNN
F 2 "Resistor_SMD:R_1206_3216Metric_Pad1.42x1.75mm_HandSolder" V 6080 9800 50  0001 C CNN
F 3 "~" H 6150 9800 50  0001 C CNN
	1    6150 9800
	1    0    0    -1  
$EndComp
$Comp
L Device:R R6
U 1 1 5DB561FD
P 6150 10100
F 0 "R6" H 6220 10146 50  0000 L CNN
F 1 "20K" H 6220 10055 50  0000 L CNN
F 2 "Resistor_SMD:R_1206_3216Metric_Pad1.42x1.75mm_HandSolder" V 6080 10100 50  0001 C CNN
F 3 "~" H 6150 10100 50  0001 C CNN
	1    6150 10100
	1    0    0    -1  
$EndComp
Wire Wire Line
	6150 9950 6500 9950
Connection ~ 6150 9950
Wire Wire Line
	6150 9650 5800 9650
$Comp
L power:GND #PWR013
U 1 1 5DB5620A
P 6150 10250
F 0 "#PWR013" H 6150 10000 50  0001 C CNN
F 1 "GND" H 6155 10077 50  0000 C CNN
F 2 "" H 6150 10250 50  0001 C CNN
F 3 "" H 6150 10250 50  0001 C CNN
	1    6150 10250
	1    0    0    -1  
$EndComp
Text Label 5800 9650 0    50   ~ 0
CS-5V
Text Label 6500 9950 0    50   ~ 0
CS
$Comp
L Device:C C9
U 1 1 5DACEF06
P 14050 7900
F 0 "C9" H 14165 7946 50  0000 L CNN
F 1 "10uF" H 14165 7855 50  0000 L CNN
F 2 "Capacitor_SMD:C_1206_3216Metric_Pad1.42x1.75mm_HandSolder" H 14088 7750 50  0001 C CNN
F 3 "~" H 14050 7900 50  0001 C CNN
	1    14050 7900
	1    0    0    -1  
$EndComp
Connection ~ 14050 7750
Wire Wire Line
	14050 8050 14050 8150
Wire Wire Line
	13800 7750 14050 7750
Wire Wire Line
	13800 7650 14300 7650
$Comp
L Device:Polyfuse F1
U 1 1 5DB010AA
P 2300 1650
F 0 "F1" V 2075 1650 50  0000 C CNN
F 1 "Polyfuse" V 2166 1650 50  0000 C CNN
F 2 "Fuse:Fuse_Bourns_MF-RHT050" H 2350 1450 50  0001 L CNN
F 3 "~" H 2300 1650 50  0001 C CNN
	1    2300 1650
	0    1    1    0   
$EndComp
Wire Wire Line
	2450 1650 2550 1650
Wire Wire Line
	2950 1650 2950 1450
Text Notes 9000 9100 0    50   ~ 0
Digital Inputs Using Internal Pull Up Resistor
Wire Notes Line
	10750 8950 10750 8000
Wire Notes Line
	10750 8000 9000 8000
Wire Notes Line
	9000 8000 9000 8950
Wire Notes Line
	9000 8950 10750 8950
Wire Notes Line
	10750 7950 10750 7000
Wire Notes Line
	10750 7000 9000 7000
Wire Notes Line
	9000 7000 9000 7950
Wire Notes Line
	9000 7950 10750 7950
Wire Notes Line
	10800 6950 8950 6950
Wire Notes Line
	8950 6950 8950 9200
Wire Notes Line
	8950 9200 10800 9200
Wire Notes Line
	10800 6950 10800 9200
Wire Notes Line
	6600 2300 8950 2300
Wire Notes Line
	8950 2300 8950 600 
Wire Notes Line
	8950 600  6600 600 
Wire Notes Line
	6600 600  6600 2300
Text Notes 2450 2200 0    50   ~ 0
Input Protection
Wire Notes Line
	3300 2250 3300 1200
Wire Notes Line
	3300 1200 1400 1200
Wire Notes Line
	1400 1200 1400 2250
Wire Notes Line
	1400 2250 3300 2250
Wire Wire Line
	14050 7750 14500 7750
Wire Wire Line
	14500 7800 14500 7750
Connection ~ 14500 7750
Wire Wire Line
	14500 7750 14800 7750
Wire Wire Line
	14500 8100 14500 8150
Wire Wire Line
	14050 8150 14500 8150
Connection ~ 14500 8150
Wire Wire Line
	14500 8150 14500 8200
Wire Notes Line
	4200 2350 1100 2350
Wire Notes Line
	1100 2350 1100 3600
Wire Notes Line
	1100 3600 4200 3600
Wire Notes Line
	4200 2350 4200 3600
Wire Notes Line
	15450 8600 15450 7300
Wire Notes Line
	15450 7300 13050 7300
Wire Notes Line
	13050 7300 13050 8600
Wire Notes Line
	13050 8600 15450 8600
$Comp
L power:+5V #PWR034
U 1 1 5DB87D9F
P 12250 1850
F 0 "#PWR034" H 12250 1700 50  0001 C CNN
F 1 "+5V" V 12265 1978 50  0000 L CNN
F 2 "" H 12250 1850 50  0001 C CNN
F 3 "" H 12250 1850 50  0001 C CNN
	1    12250 1850
	0    -1   -1   0   
$EndComp
$Comp
L Device:C C10
U 1 1 5DB9769A
P 12300 1550
F 0 "C10" H 12415 1596 50  0000 L CNN
F 1 "10uF" H 12415 1505 50  0000 L CNN
F 2 "Capacitor_SMD:C_1206_3216Metric_Pad1.42x1.75mm_HandSolder" H 12338 1400 50  0001 C CNN
F 3 "~" H 12300 1550 50  0001 C CNN
	1    12300 1550
	1    0    0    -1  
$EndComp
$Comp
L Device:C C11
U 1 1 5DBB6A2B
P 12550 1300
F 0 "C11" H 12665 1346 50  0000 L CNN
F 1 "10uF" H 12665 1255 50  0000 L CNN
F 2 "Capacitor_SMD:C_1206_3216Metric_Pad1.42x1.75mm_HandSolder" H 12588 1150 50  0001 C CNN
F 3 "~" H 12550 1300 50  0001 C CNN
	1    12550 1300
	1    0    0    -1  
$EndComp
Wire Wire Line
	12250 1750 12300 1750
Wire Wire Line
	12300 1750 12300 1700
Wire Wire Line
	12300 1750 12900 1750
Connection ~ 12300 1750
Wire Wire Line
	12550 1450 12550 1850
Wire Wire Line
	12550 1850 12250 1850
Wire Wire Line
	12550 1850 12900 1850
Connection ~ 12550 1850
$Comp
L power:GND #PWR035
U 1 1 5DBD2A44
P 12300 1100
F 0 "#PWR035" H 12300 850 50  0001 C CNN
F 1 "GND" H 12305 927 50  0000 C CNN
F 2 "" H 12300 1100 50  0001 C CNN
F 3 "" H 12300 1100 50  0001 C CNN
	1    12300 1100
	-1   0    0    1   
$EndComp
Wire Wire Line
	12300 1100 12300 1150
Wire Wire Line
	12550 1150 12300 1150
Connection ~ 12300 1150
Wire Wire Line
	12300 1150 12300 1400
$Comp
L Device:D D1
U 1 1 5DAF1086
P 2700 1650
F 0 "D1" H 2700 1434 50  0000 C CNN
F 1 "D" H 2700 1525 50  0000 C CNN
F 2 "Diode_SMD:D_SMA_Handsoldering" H 2700 1650 50  0001 C CNN
F 3 "~" H 2700 1650 50  0001 C CNN
	1    2700 1650
	-1   0    0    1   
$EndComp
Wire Wire Line
	2850 1650 2950 1650
$Comp
L Device:C C12
U 1 1 5DBA3F2E
P 1150 9550
F 0 "C12" H 1265 9596 50  0000 L CNN
F 1 "0.1u" H 1265 9505 50  0000 L CNN
F 2 "Capacitor_SMD:C_1206_3216Metric_Pad1.42x1.75mm_HandSolder" H 1188 9400 50  0001 C CNN
F 3 "~" H 1150 9550 50  0001 C CNN
	1    1150 9550
	1    0    0    -1  
$EndComp
Wire Wire Line
	1150 9400 1150 9200
Wire Wire Line
	1150 9200 1550 9200
Connection ~ 1550 9200
Wire Wire Line
	1150 9700 1150 9900
Wire Wire Line
	1150 9900 1550 9900
Connection ~ 1550 9900
Wire Notes Line
	12800 9050 12800 7050
Wire Notes Line
	12800 7050 11000 7050
Wire Notes Line
	11000 7050 11000 9050
Wire Notes Line
	11000 9050 12800 9050
$Comp
L power:+5V #PWR040
U 1 1 5DC4FA96
P 14750 4050
F 0 "#PWR040" H 14750 3900 50  0001 C CNN
F 1 "+5V" H 14765 4223 50  0000 C CNN
F 2 "" H 14750 4050 50  0001 C CNN
F 3 "" H 14750 4050 50  0001 C CNN
	1    14750 4050
	1    0    0    -1  
$EndComp
Wire Wire Line
	14500 4150 14750 4150
Wire Wire Line
	14750 4150 14750 4050
$Comp
L power:+5V #PWR039
U 1 1 5DC5E496
P 12550 4000
F 0 "#PWR039" H 12550 3850 50  0001 C CNN
F 1 "+5V" H 12565 4173 50  0000 C CNN
F 2 "" H 12550 4000 50  0001 C CNN
F 3 "" H 12550 4000 50  0001 C CNN
	1    12550 4000
	1    0    0    -1  
$EndComp
Wire Wire Line
	12550 4000 12550 4150
Wire Wire Line
	12550 4150 12900 4150
Text Label 14500 2150 0    50   ~ 0
EEPROM_WP
$Comp
L Device:C C8
U 1 1 5DCBAB15
P 1450 2800
F 0 "C8" H 1565 2846 50  0000 L CNN
F 1 "0.1uF" H 1565 2755 50  0000 L CNN
F 2 "Capacitor_SMD:C_1206_3216Metric_Pad1.42x1.75mm_HandSolder" H 1488 2650 50  0001 C CNN
F 3 "~" H 1450 2800 50  0001 C CNN
	1    1450 2800
	1    0    0    -1  
$EndComp
Connection ~ 1450 2650
Wire Wire Line
	1450 2950 1450 3100
Wire Wire Line
	1450 3100 1800 3100
Connection ~ 1800 3100
$Comp
L Mechanical:MountingHole_Pad H1
U 1 1 5DCC8A51
P 10550 9950
F 0 "H1" V 10504 10100 50  0000 L CNN
F 1 "MountingHole_Pad" V 10595 10100 50  0000 L CNN
F 2 "MountingHole:MountingHole_3.2mm_M3_DIN965_Pad" H 10550 9950 50  0001 C CNN
F 3 "~" H 10550 9950 50  0001 C CNN
	1    10550 9950
	0    1    1    0   
$EndComp
$Comp
L Mechanical:MountingHole_Pad H2
U 1 1 5DCD1449
P 10550 10150
F 0 "H2" V 10504 10300 50  0000 L CNN
F 1 "MountingHole_Pad" V 10595 10300 50  0000 L CNN
F 2 "MountingHole:MountingHole_3.2mm_M3_DIN965_Pad" H 10550 10150 50  0001 C CNN
F 3 "~" H 10550 10150 50  0001 C CNN
	1    10550 10150
	0    1    1    0   
$EndComp
$Comp
L Mechanical:MountingHole_Pad H3
U 1 1 5DCD1770
P 10550 10350
F 0 "H3" V 10504 10500 50  0000 L CNN
F 1 "MountingHole_Pad" V 10595 10500 50  0000 L CNN
F 2 "MountingHole:MountingHole_3.2mm_M3_DIN965_Pad" H 10550 10350 50  0001 C CNN
F 3 "~" H 10550 10350 50  0001 C CNN
	1    10550 10350
	0    1    1    0   
$EndComp
$Comp
L Mechanical:MountingHole_Pad H4
U 1 1 5DCD1AE4
P 10550 10550
F 0 "H4" V 10504 10700 50  0000 L CNN
F 1 "MountingHole_Pad" V 10595 10700 50  0000 L CNN
F 2 "MountingHole:MountingHole_3.2mm_M3_DIN965_Pad" H 10550 10550 50  0001 C CNN
F 3 "~" H 10550 10550 50  0001 C CNN
	1    10550 10550
	0    1    1    0   
$EndComp
$Comp
L power:GND #PWR038
U 1 1 5DCE4C31
P 10300 10650
F 0 "#PWR038" H 10300 10400 50  0001 C CNN
F 1 "GND" H 10305 10477 50  0000 C CNN
F 2 "" H 10300 10650 50  0001 C CNN
F 3 "" H 10300 10650 50  0001 C CNN
	1    10300 10650
	1    0    0    -1  
$EndComp
Wire Wire Line
	10300 10650 10300 10550
Wire Wire Line
	10300 10550 10450 10550
Wire Wire Line
	10300 10550 10300 10350
Wire Wire Line
	10300 10350 10450 10350
Connection ~ 10300 10550
Wire Wire Line
	10300 10350 10300 10150
Wire Wire Line
	10300 10150 10450 10150
Connection ~ 10300 10350
Wire Wire Line
	10300 10150 10300 9950
Wire Wire Line
	10300 9950 10450 9950
Connection ~ 10300 10150
Text Notes 10800 10800 0    50   ~ 0
Mounting Holes
Wire Notes Line
	11600 9800 10050 9800
Wire Notes Line
	10050 9800 10050 10950
Wire Notes Line
	10050 10950 11600 10950
Wire Notes Line
	11600 9800 11600 10950
Wire Notes Line
	7450 10700 7450 6400
Wire Notes Line
	7450 6400 1000 6400
Wire Notes Line
	1000 6400 1000 10700
Wire Notes Line
	1000 10700 7450 10700
$Comp
L Timer_RTC:DS1307Z+ U3
U 1 1 5DE975AB
P 7850 3450
F 0 "U3" H 8394 3496 50  0000 L CNN
F 1 "DS1307Z+" H 8394 3405 50  0000 L CNN
F 2 "Package_SO:SOIC-8_3.9x4.9mm_P1.27mm" H 7850 2950 50  0001 C CNN
F 3 "https://datasheets.maximintegrated.com/en/ds/DS1307.pdf" H 7850 3450 50  0001 C CNN
	1    7850 3450
	1    0    0    -1  
$EndComp
$Comp
L Device:Battery_Cell BT1
U 1 1 5DE98B1C
P 8450 2900
F 0 "BT1" H 8568 2996 50  0000 L CNN
F 1 "Battery_Cell" H 8568 2905 50  0000 L CNN
F 2 "Battery:BatteryHolder_Keystone_3002_1x2032" V 8450 2960 50  0001 C CNN
F 3 "~" V 8450 2960 50  0001 C CNN
	1    8450 2900
	1    0    0    -1  
$EndComp
$Comp
L power:GND #PWR037
U 1 1 5DE99BDB
P 8450 3100
F 0 "#PWR037" H 8450 2850 50  0001 C CNN
F 1 "GND" H 8455 2927 50  0000 C CNN
F 2 "" H 8450 3100 50  0001 C CNN
F 3 "" H 8450 3100 50  0001 C CNN
	1    8450 3100
	1    0    0    -1  
$EndComp
Wire Wire Line
	8450 3100 8450 3000
Wire Wire Line
	8450 2700 7850 2700
Wire Wire Line
	7850 2700 7850 3050
Wire Wire Line
	7750 3050 7750 2950
Wire Wire Line
	7750 2950 7550 2950
Wire Wire Line
	7550 2950 7550 2850
$Comp
L power:+5V #PWR028
U 1 1 5DEB3CEF
P 7550 2850
F 0 "#PWR028" H 7550 2700 50  0001 C CNN
F 1 "+5V" H 7565 3023 50  0000 C CNN
F 2 "" H 7550 2850 50  0001 C CNN
F 3 "" H 7550 2850 50  0001 C CNN
	1    7550 2850
	1    0    0    -1  
$EndComp
Text Label 7100 3350 0    50   ~ 0
SDA
Wire Wire Line
	7100 3350 7350 3350
Text Label 7100 3250 0    50   ~ 0
SCL
Wire Wire Line
	7100 3250 7350 3250
$Comp
L Device:Crystal Y1
U 1 1 5DEDD44B
P 6650 3700
F 0 "Y1" V 6604 3831 50  0000 L CNN
F 1 " 32.768kHz " V 6695 3831 50  0000 L CNN
F 2 "Crystal:Crystal_SMD_3215-2Pin_3.2x1.5mm" H 6650 3700 50  0001 C CNN
F 3 "~" H 6650 3700 50  0001 C CNN
	1    6650 3700
	0    1    1    0   
$EndComp
Wire Wire Line
	6650 3850 7350 3850
Wire Wire Line
	7350 3850 7350 3650
Wire Wire Line
	7350 3550 6650 3550
$Comp
L power:GND #PWR036
U 1 1 5DEFB10B
P 7850 3900
F 0 "#PWR036" H 7850 3650 50  0001 C CNN
F 1 "GND" H 7855 3727 50  0000 C CNN
F 2 "" H 7850 3900 50  0001 C CNN
F 3 "" H 7850 3900 50  0001 C CNN
	1    7850 3900
	1    0    0    -1  
$EndComp
Wire Wire Line
	7850 3900 7850 3850
Text Notes 9100 4200 0    50   ~ 0
RTC
Wire Notes Line
	6150 2400 6150 4250
Wire Notes Line
	6150 4250 9350 4250
Wire Notes Line
	9350 4250 9350 2400
Wire Notes Line
	9350 2400 6150 2400
$Comp
L Device:C C13
U 1 1 5DFAB8A3
P 7250 2950
F 0 "C13" V 6998 2950 50  0000 C CNN
F 1 "10uF" V 7089 2950 50  0000 C CNN
F 2 "Capacitor_SMD:C_1206_3216Metric_Pad1.42x1.75mm_HandSolder" H 7288 2800 50  0001 C CNN
F 3 "~" H 7250 2950 50  0001 C CNN
	1    7250 2950
	0    1    1    0   
$EndComp
Wire Wire Line
	7400 2950 7550 2950
Connection ~ 7550 2950
$Comp
L power:GND #PWR027
U 1 1 5DFB6328
P 6950 2950
F 0 "#PWR027" H 6950 2700 50  0001 C CNN
F 1 "GND" V 6955 2822 50  0000 R CNN
F 2 "" H 6950 2950 50  0001 C CNN
F 3 "" H 6950 2950 50  0001 C CNN
	1    6950 2950
	0    1    1    0   
$EndComp
Wire Wire Line
	6950 2950 7100 2950
$EndSCHEMATC
